11. データハンドリング [基礎編2] | 私たちのR: あなたのために書いたわけじゃない
…
グループ化変数は2つ以上指定することも可能です。たとえば、都府県 (Pref)と最寄りの駅の路線 (Line)でグループ化することも可能です。それではPrefとLineでグループ化し、店舗数と口コミ数、評価の平均値を計算し、ソートの順番は店舗数、店舗数が同じなら評価の平均値が高い順にしましょう。今回もsummarise()内に.group = "drop"を指定し、グループ化を解除します。今回はTop 20まで出してみましょう。

# ScoreNとScoreの平均値をPrefごとに求める
df %>%
  filter(!is.na(Line)) %>% # Lineが欠損していないケースのみ残す
  group_by(Pref, Line) %>% # PrefとLineでグループ化
  summarise(N           = n(),
            ScoreN_Sum  = sum(ScoreN,  na.rm = TRUE),
            Score_Mean  = mean(Score,  na.rm = TRUE),
            .groups     = "drop") %>%
  arrange(desc(N), desc(Score_Mean)) %>%
  print(n = 20)

## # A tibble: 523 x 5
##    Pref     Line                        N ScoreN_Sum Score_Mean
##    <chr>    <chr>                   <int>      <dbl>      <dbl>
##  1 埼玉県   東武東上線                122         27       3.68
##  2 東京都   ＪＲ                      104        231       3.56
##  3 神奈川県 小田急小田原線             96         31       3.59
##  4 埼玉県   東武伊勢崎線               96         18       3.51
##  5 神奈川県 横浜市営ブルーライン       82         77       3.66
##  6 千葉県   京成本線                   82         29       3.34
##  7 神奈川県 京急本線                   68         40       3.33
##  8 千葉県   東武野田線                 63          2       4.75
##  9 神奈川県 小田急江ノ島線             62          8       3.79
## 10 大阪府   阪急京都本線               53         32       3.67
## 11 大阪府   南海本線                   52         11       4.22
## 12 兵庫県   阪神本線                   52         23       3.80
## 13 埼玉県   JR高崎線                   51          5       4   
## 14 兵庫県   山陽電鉄本線               51         15       2.98
## 15 千葉県   JR総武本線（東京-銚子）    47          8       4   
## 16 埼玉県   西武新宿線                 45          8       4.17
## 17 埼玉県   秩父鉄道線                 43         10       3.82
## 18 大阪府   京阪本線                   43         10       3.69
## 19 千葉県   新京成電鉄                 43          6       3.6 
## 20 京都府   阪急京都本線               43         27       3.5 
## # … with 503 more rows
…
結果を見ると## # Groups:   Pref, Line [523]で、ちゃんとグループ化されていることが分かります。

df %>%
  filter(!is.na(Line)) %>% 
  group_by(Pref, Line) %>% 
  summarise(N           = n(),
            ScoreN_Sum  = sum(ScoreN,  na.rm = TRUE),
            Score_Mean  = mean(Score,  na.rm = TRUE),
            .groups     = "drop") %>%
  arrange(desc(N), desc(Score_Mean)) %>%
  group_by(Pref, Line) %>% # group_by()、もう一度
  print(n = 5)

## # A tibble: 523 x 5
## # Groups:   Pref, Line [523]
##   Pref     Line                     N ScoreN_Sum Score_Mean
##   <chr>    <chr>                <int>      <dbl>      <dbl>
## 1 埼玉県   東武東上線             122         27       3.68
## 2 東京都   ＪＲ                   104        231       3.56
## 3 神奈川県 小田急小田原線          96         31       3.59
## 4 埼玉県   東武伊勢崎線            96         18       3.51
## 5 神奈川県 横浜市営ブルーライン    82         77       3.66
## # … with 518 more rows
.groups引数を何とかする。

推奨される方法は2番です。具体的には.groups = "keep"を指定するだけであり、こっちの方が無駄なコードを省けることができます。

df %>%
  filter(!is.na(Line)) %>% 
  group_by(Pref, Line) %>% 
  summarise(N           = n(),
            ScoreN_Sum  = sum(ScoreN,  na.rm = TRUE),
            Score_Mean  = mean(Score,  na.rm = TRUE),
            .groups     = "keep") %>%
  arrange(desc(N), desc(Score_Mean)) %>%
  print(n = 5)

## # A tibble: 523 x 5
## # Groups:   Pref, Line [523]
##   Pref     Line                     N ScoreN_Sum Score_Mean
##   <chr>    <chr>                <int>      <dbl>      <dbl>
## 1 埼玉県   東武東上線             122         27       3.68
## 2 東京都   ＪＲ                   104        231       3.56
## 3 神奈川県 小田急小田原線          96         31       3.59
## 4 埼玉県   東武伊勢崎線            96         18       3.51
## 5 神奈川県 横浜市営ブルーライン    82         77       3.66
## # … with 518 more rows
…
##   0%  25%  50%  75% 100% 
##    1    2    5   12  116

.groupsのデフォルト値が"keep"になるのは、このように長さ2以上のベクトルが返されるケースです。たとえば、都府県と最寄りの駅の路線でグループ化し、店舗までの徒歩距離の平均値を求めるとします。デフォルト値の変化を見るために、ここではあえて.groups引数を省略しました。

df %>%
  filter(!is.na(Walk)) %>%
  group_by(Pref, Line) %>%
  summarise(Mean = mean(Walk))

## `summarise()` regrouping output by 'Pref' (override with `.groups` argument)

## # A tibble: 509 x 3
## # Groups:   Pref [9]
##    Pref   Line                         Mean
##    <chr>  <chr>                       <dbl>
##  1 京都府 ＪＲ                         4   
##  2 京都府 ＪＲ京都線                  10   
##  3 京都府 ＪＲ嵯峨野線                 5   
##  4 京都府 ＪＲ山陰本線                19   
##  5 京都府 ＪＲ山陰本線（京都-米子）    9.23
##  6 京都府 JR山陰本線（京都-米子）      8.67
##  7 京都府 JR小浜線                    16.5 
##  8 京都府 ＪＲ小浜線                   9   
##  9 京都府 ＪＲ東海道本線（米原-神戸） 11.2 
## 10 京都府 JR東海道本線（米原-神戸）   16.3 
## # … with 499 more rows

最初はPrefとLineでグループ化しましたが、summarise()の後、Lineがグループ化変数から外されました。つまり、引数が"drop_last"になっていることです。

それでは、平均値に加えて、第一四分位点と第三四分位点も計算し、Quantileという名で格納してみましょう。

df %>%
  filter(!is.na(Walk)) %>%
  group_by(Pref, Line) %>%
  summarise(Mean     = mean(Walk),
            Quantile = quantile(Walk, c(0.25, 0.75)))

## `summarise()` regrouping output by 'Pref', 'Line' (override with `.groups` argument)

## # A tibble: 1,018 x 4
## # Groups:   Pref, Line [509]
##    Pref   Line                       Mean Quantile
##    <chr>  <chr>                     <dbl>    <dbl>
##  1 京都府 ＪＲ                       4        1.25
##  2 京都府 ＪＲ                       4        5   
##  3 京都府 ＪＲ京都線                10       10   
##  4 京都府 ＪＲ京都線                10       10   
##  5 京都府 ＪＲ嵯峨野線               5        4.5 
##  6 京都府 ＪＲ嵯峨野線               5        6   
##  7 京都府 ＪＲ山陰本線              19       19   
##  8 京都府 ＪＲ山陰本線              19       19   
##  9 京都府 ＪＲ山陰本線（京都-米子）  9.23     3   
## 10 京都府 ＪＲ山陰本線（京都-米子）  9.23    13   
## # … with 1,008 more rows
…
続いて、データフレーム内の変数を用いて計算を行い、その結果を新しい列として格納するmutate()関数について紹介します。まず、mutate()関数の書き方からです。

# mutate()関数の使い方
データフレーム名 %>%
  mutate(新しい変数名 = 処理内容)

これは何らかの処理を行い、その結果を新しい変数としてデータフレームに追加することを意味します。新しく出来た変数は、基本的に最後の列になります。ここでは分単位であるWalkを時間単位に変換したWalk_Hour変数を作成するとします。処理内容はWalk / 60です。最後に、都府県名、店舗名、徒歩距離 (分)、徒歩距離 (時間)のみを残し、遠い順にソートします。

df %>%
  filter(!is.na(Walk)) %>%
  mutate(Walk_Hour = Walk / 60) %>%
  select(Pref, Name, Walk, Walk_Hour) %>%
  arrange(desc(Walk_Hour))

## # A tibble: 5,375 x 4
##    Pref     Name                               Walk Walk_Hour
##    <chr>    <chr>                             <dbl>     <dbl>
##  1 埼玉県   札幌ラーメン どさん子 小鹿野店      116     1.93 
##  2 神奈川県 札幌ラーメン どさん子 中津店         73     1.22 
##  3 千葉県   札幌ラーメン どさん子 佐原51号店     59     0.983
##  4 神奈川県 札幌ラーメン どさん子 山際店         50     0.833
##  5 千葉県   札幌ラーメン どさん子 関宿店         49     0.817
##  6 兵庫県   濃厚醤油 中華そば いせや 玉津店      43     0.717
##  7 大阪府   河童ラーメン本舗 岸和田店            38     0.633
##  8 埼玉県   ラーメン山岡家 上尾店                35     0.583
##  9 兵庫県   濃厚醤油 中華そば いせや 大蔵谷店    35     0.583
## 10 大阪府   河童ラーメン本舗 松原店              31     0.517
## # … with 5,365 more rows
…
