…
```{.r .numberLines}
# ScoreNとScoreの平均値をPrefごとに求める
df %>%
  filter(!is.na(Line)) %>% # Lineが欠損していないケースのみ残す
  group_by(Pref, Line) %>% # PrefとLineでグループ化
  summarise(N           = n(),
            ScoreN_Sum  = sum(ScoreN,  na.rm = TRUE),
            Score_Mean  = mean(Score,  na.rm = TRUE),
            .groups     = "drop") %>%
  arrange(desc(N), desc(Score_Mean)) %>%
  print(n = 20)
```

```
## # A tibble: 523 × 5
##    Pref     Line                        N ScoreN_Sum Score_Mean
##    <chr>    <chr>                   <int>      <dbl>      <dbl>
##  1 埼玉県   東武東上線                122         27       3.68
##  2 東京都   ＪＲ                      104        231       3.56
##  3 神奈川県 小田急小田原線             96         31       3.59
##  4 埼玉県   東武伊勢崎線               96         18       3.51
##  5 神奈川県 横浜市営ブルーライン       82         77       3.66
##  6 千葉県   京成本線                   82         29       3.34
##  7 神奈川県 京急本線                   68         40       3.33
##  8 千葉県   東武野田線                 63          2       4.75
##  9 神奈川県 小田急江ノ島線             62          8       3.79
## 10 大阪府   阪急京都本線               53         32       3.67
## 11 大阪府   南海本線                   52         11       4.22
## 12 兵庫県   阪神本線                   52         23       3.80
## 13 埼玉県   JR高崎線                   51          5       4   
## 14 兵庫県   山陽電鉄本線               51         15       2.98
## 15 千葉県   JR総武本線（東京-銚子）    47          8       4   
## 16 埼玉県   西武新宿線                 45          8       4.17
## 17 埼玉県   秩父鉄道線                 43         10       3.82
## 18 大阪府   京阪本線                   43         10       3.69
## 19 千葉県   新京成電鉄                 43          6       3.6 
## 20 京都府   阪急京都本線               43         27       3.5 
## # … with 503 more rows
```
…
```{.r .numberLines}
df %>%
  filter(!is.na(Line)) %>% 
  group_by(Pref, Line) %>% 
  summarise(N           = n(),
            ScoreN_Sum  = sum(ScoreN,  na.rm = TRUE),
            Score_Mean  = mean(Score,  na.rm = TRUE),
            .groups     = "drop") %>%
  arrange(desc(N), desc(Score_Mean)) %>%
  group_by(Pref, Line) %>% # group_by()、もう一度
  print(n = 5)
```

```
## # A tibble: 523 × 5
## # Groups:   Pref, Line [523]
##   Pref     Line                     N ScoreN_Sum Score_Mean
##   <chr>    <chr>                <int>      <dbl>      <dbl>
## 1 埼玉県   東武東上線             122         27       3.68
## 2 東京都   ＪＲ                   104        231       3.56
## 3 神奈川県 小田急小田原線          96         31       3.59
## 4 埼玉県   東武伊勢崎線            96         18       3.51
## 5 神奈川県 横浜市営ブルーライン    82         77       3.66
## # … with 518 more rows
```
…
```{.r .numberLines}
df %>%
  filter(!is.na(Line)) %>% 
  group_by(Pref, Line) %>% 
  summarise(N           = n(),
            ScoreN_Sum  = sum(ScoreN,  na.rm = TRUE),
            Score_Mean  = mean(Score,  na.rm = TRUE),
            .groups     = "keep") %>%
  arrange(desc(N), desc(Score_Mean)) %>%
  print(n = 5)
```

```
## # A tibble: 523 × 5
## # Groups:   Pref, Line [523]
##   Pref     Line                     N ScoreN_Sum Score_Mean
##   <chr>    <chr>                <int>      <dbl>      <dbl>
## 1 埼玉県   東武東上線             122         27       3.68
## 2 東京都   ＪＲ                   104        231       3.56
## 3 神奈川県 小田急小田原線          96         31       3.59
## 4 埼玉県   東武伊勢崎線            96         18       3.51
## 5 神奈川県 横浜市営ブルーライン    82         77       3.66
## # … with 518 more rows
```
…
```{.r .numberLines}
df %>%
  filter(!is.na(Walk)) %>%
  group_by(Pref, Line) %>%
  summarise(Mean = mean(Walk))
```

```
## `summarise()` has grouped output by 'Pref'. You can override using the
## `.groups` argument.
```

```
## # A tibble: 509 × 3
## # Groups:   Pref [9]
##    Pref   Line                         Mean
##    <chr>  <chr>                       <dbl>
##  1 京都府 ＪＲ                         4   
##  2 京都府 ＪＲ京都線                  10   
##  3 京都府 ＪＲ嵯峨野線                 5   
##  4 京都府 ＪＲ山陰本線                19   
##  5 京都府 ＪＲ山陰本線（京都-米子）    9.23
##  6 京都府 JR山陰本線（京都-米子）      8.67
##  7 京都府 JR小浜線                    16.5 
##  8 京都府 ＪＲ小浜線                   9   
##  9 京都府 ＪＲ東海道本線（米原-神戸） 11.2 
## 10 京都府 JR東海道本線（米原-神戸）   16.3 
## # … with 499 more rows
```
…
```{.r .numberLines}
df %>%
  filter(!is.na(Walk)) %>%
  group_by(Pref, Line) %>%
  summarise(Mean     = mean(Walk),
            Quantile = quantile(Walk, c(0.25, 0.75)))
```

```
## `summarise()` has grouped output by 'Pref', 'Line'. You can override using the
## `.groups` argument.
```

```
## # A tibble: 1,018 × 4
## # Groups:   Pref, Line [509]
##    Pref   Line                       Mean Quantile
##    <chr>  <chr>                     <dbl>    <dbl>
##  1 京都府 ＪＲ                       4        1.25
##  2 京都府 ＪＲ                       4        5   
##  3 京都府 ＪＲ京都線                10       10   
##  4 京都府 ＪＲ京都線                10       10   
##  5 京都府 ＪＲ嵯峨野線               5        4.5 
##  6 京都府 ＪＲ嵯峨野線               5        6   
##  7 京都府 ＪＲ山陰本線              19       19   
##  8 京都府 ＪＲ山陰本線              19       19   
##  9 京都府 ＪＲ山陰本線（京都-米子）  9.23     3   
## 10 京都府 ＪＲ山陰本線（京都-米子）  9.23    13   
## # … with 1,008 more rows
```
…
これは何らかの処理を行い、その結果を新しい変数としてデータフレームに追加することを意味します。新しく出来た変数は、基本的に最後の列になります。ここでは分単位である`Walk`を時間単位に変換した`Walk_Hour`変数を作成するとします。処理内容は`Walk / 60`です。最後に、都府県名、店舗名、徒歩距離 (分)、徒歩距離 (時間)のみを残し、遠い順にソートします。


```{.r .numberLines}
df %>%
  filter(!is.na(Walk)) %>%
  mutate(Walk_Hour = Walk / 60) %>%
  select(Pref, Name, Walk, Walk_Hour) %>%
  arrange(desc(Walk_Hour))
```

```
## # A tibble: 5,375 × 4
##    Pref     Name                               Walk Walk_Hour
##    <chr>    <chr>                             <dbl>     <dbl>
##  1 埼玉県   札幌ラーメン どさん子 小鹿野店      116     1.93 
##  2 神奈川県 札幌ラーメン どさん子 中津店         73     1.22 
##  3 千葉県   札幌ラーメン どさん子 佐原51号店     59     0.983
##  4 神奈川県 札幌ラーメン どさん子 山際店         50     0.833
##  5 千葉県   札幌ラーメン どさん子 関宿店         49     0.817
##  6 兵庫県   濃厚醤油 中華そば いせや 玉津店      43     0.717
##  7 大阪府   河童ラーメン本舗 岸和田店            38     0.633
##  8 埼玉県   ラーメン山岡家 上尾店                35     0.583
##  9 兵庫県   濃厚醤油 中華そば いせや 大蔵谷店    35     0.583
## 10 大阪府   河童ラーメン本舗 松原店              31     0.517
## # … with 5,365 more rows
```
…
```{.r .numberLines}
df3
```

```
## # A tibble: 47 × 15
##    Pref      Pop   Area RamenN Turnout   LDP   CDP  DPFP Komei   JIP   JCP   SDP
##    <chr>   <dbl>  <dbl>  <dbl>   <dbl> <dbl> <dbl> <dbl> <dbl> <dbl> <dbl> <dbl>
##  1 北海道 5.38e6 83424.   1454    53.8  32.3  20.8  6.65 11.7   7.78 11.6   1.31
##  2 青森県 1.31e6  9646.    336    42.9  39.8  22.0  7.24 11.3   3.4   8.31  2.36
##  3 岩手県 1.28e6 15275.    285    56.5  35.5  17.8 12.5   8.22  4.36 10.4   3.83
##  4 宮城県 2.33e6  7282.    557    51.2  39.6  17.8  9.02 11.1   4.6   7.89  2.1 
##  5 秋田県 1.02e6 11638.    301    56.3  44.5  13.5  8.64 10.6   4.48  8.09  3.77
##  6 山形県 1.12e6  9323.    512    60.7  45.2  14.9  7.37  9.87  4.28  6.51  5.08
##  7 福島県 1.91e6 13784.    550    52.4  38.2  13.6 12.1  12.8   5.31  7.99  3.01
##  8 茨城県 2.92e6  6097.    663    45.0  39.3  15.2  7.15 15.1   6.73  7.73  1.46
##  9 栃木県 1.97e6  6408.    595    44.1  40.3  18.9  9.94 12.8   4.9   5.04  1.03
## 10 群馬県 1.97e6  6362.    488    48.2  40.6  16.4  9.76 12.4   4.67  7.58  1.87
## # … with 37 more rows, and 3 more variables: Reiwa <dbl>, NHK <dbl>, HRP <dbl>
```
…
データのキー変数名が異なる場合もあります。たとえば、データ1の都道府県名は`Pref`という列に、データ2の都道府県名は`Prefecture`という列になっている場合、`by = "Pref"`でなく、`by = c("データ1のキー変数名" = "データ2のキー変数名")`、つまり、`by = c("Pref" = "Prefecture")`と指定します。

それでは、`df3`から都道府県名とラーメン屋の店舗数だけ抽出し、`df4`として格納しておきます。


```{.r .numberLines}
df4 <- df3 %>%
  select(Pref, RamenN)

df4
```

```
## # A tibble: 47 × 2
##    Pref   RamenN
##    <chr>   <dbl>
##  1 北海道   1454
##  2 青森県    336
##  3 岩手県    285
##  4 宮城県    557
##  5 秋田県    301
##  6 山形県    512
##  7 福島県    550
##  8 茨城県    663
##  9 栃木県    595
## 10 群馬県    488
## # … with 37 more rows
```
…
<div class="figure" style="text-align: center">
<img src="Figures/Handling2/Merge_Full.png" alt="`full_join()`の仕組み" width="80%" />
<p class="caption">(\#fig:full-join)`full_join()`の仕組み</p>
</div>

それでは実際、結果を確認してみましょう。今回は結合後、`RamenN`が大きい順で出力します。


```{.r .numberLines}
full_join(df2, df4, by = "Pref") %>%
  arrange(desc(RamenN)) # ぐるなびに登録された店舗の多い都道府県から出力
```

```
## # A tibble: 47 × 6
##    Pref     Budget_Mean ScoreN_Sum Score_Mean     N RamenN
##    <chr>          <dbl>      <dbl>      <dbl> <int>  <dbl>
##  1 東京都         1283.       1165       3.67  1000   3220
##  2 北海道           NA          NA      NA       NA   1454
##  3 大阪府         1203.        516       3.77  1000   1325
##  4 愛知県           NA          NA      NA       NA   1255
##  5 神奈川県       1239.        587       3.53  1000   1254
##  6 埼玉県         1147.        278       3.64  1000   1106
##  7 千葉県         1124.        259       3.72  1000   1098
##  8 福岡県           NA          NA      NA       NA    985
##  9 新潟県           NA          NA      NA       NA    705
## 10 静岡県           NA          NA      NA       NA    679
## # … with 37 more rows
```
…
