10. データの構造 | 私たちのR: ベストプラクティスの探究
…
つづいて、tibble型

VoteDF2

## # A tibble: 47 x 11
##       ID Pref   Zaisei Over65 Under30   LDP   DPJ
##    <int> <chr>   <dbl>  <dbl>   <dbl> <dbl> <dbl>
##  1     1 北海道  0.419   29.1    24.7  32.8  30.6
##  2     2 青森県  0.332   30.1    23.9  40.4  24.6
##  3     3 岩手県  0.341   30.4    24.5  34.9  22.4
##  4     4 宮城県  0.596   25.8    27.3  36.7  25.4
##  5     5 秋田県  0.299   33.8    21.4  43.5  22.7
##  6     6 山形県  0.342   30.8    24.8  42.5  21.5
##  7     7 福島県  0.509   28.7    25.2  33.8  28.3
##  8     8 茨城県  0.633   26.8    26.6  40.6  19.0
##  9     9 栃木県  0.622   25.9    26.8  38.8  21.6
## 10    10 群馬県  0.603   27.6    26.6  42.1  19.3
## # … with 37 more rows, and 4 more variables:
## #   Komei <dbl>, Ishin <dbl>, JCP <dbl>,
## #   SDP <dbl>
…
