12. データハンドリング [基礎編: factor型] | 私たちのR: あなたのために書いたわけじゃない
…
Reorder2_df <- Reorder2_df %>%
  mutate(Date = as.Date(Date))

Reorder2_df

## # A tibble: 25 x 3
##    Country Date       NewPat
##    <chr>   <date>      <dbl>
##  1 日本    2020-06-27    100
##  2 日本    2020-06-28     93
##  3 日本    2020-06-29     86
##  4 日本    2020-06-30    117
##  5 日本    2020-07-01    130
##  6 韓国    2020-06-27     62
##  7 韓国    2020-06-28     42
##  8 韓国    2020-06-29     43
##  9 韓国    2020-06-30     50
## 10 韓国    2020-07-01     54
## # … with 15 more rows
…
