24. 反復処理 | 私たちのR: ベストプラクティスの探究
…
Split_Data <- split(Country_df, Country_df$Continent)

サンプルが分割されたSplit_Dataのデータ構造はリスト型です。

class(Split_Data)

## [1] "list"

中身を見るとリストの各要素としてtibble（データフレーム）が格納されています。リストの中にはあらゆるデータ型、データ構造を入れることができることが分かります。

Split_Data

## $Africa
## # A tibble: 54 x 18
##    Country Population   Area    GDP    PPP GDP_per_capita PPP_per_capita    G7
##    <chr>        <dbl>  <dbl>  <dbl>  <dbl>          <dbl>          <dbl> <dbl>
##  1 Algeria   43851044 2.38e6 1.70e5 4.97e5          3876.         11324.     0
##  2 Angola    32866272 1.25e6 9.46e4 2.19e5          2879.          6649.     0
##  3 Benin     12123200 1.13e5 1.44e4 3.72e4          1187.          3067.     0
##  4 Botswa…    2351627 5.67e5 1.83e4 4.07e4          7799.         17311.     0
##  5 Burkin…   20903273 2.74e5 1.57e4 3.76e4           753.          1800.     0
##  6 Burundi   11890784 2.57e4 3.01e3 8.72e3           253.           733.     0
##  7 Cabo V…     555987 4.03e3 1.98e3 3.84e3          3565.          6913.     0
##  8 Camero…   26545863 4.73e5 3.88e4 9.31e4          1460.          3506.     0
##  9 Centra…    4829767 6.23e5 2.22e3 4.46e3           460.           924.     0
## 10 Chad      16425864 1.26e6 1.13e4 2.51e4           689.          1525.     0
## # … with 44 more rows, and 10 more variables: G20 <dbl>, OECD <dbl>,
## #   HDI_2018 <dbl>, Polity_Score <dbl>, Polity_Type <chr>, FH_PR <dbl>,
## #   FH_CL <dbl>, FH_Total <dbl>, FH_Status <chr>, Continent <chr>
## 
## $America
## # A tibble: 36 x 18
##    Country Population   Area    GDP    PPP GDP_per_capita PPP_per_capita    G7
##    <chr>        <dbl>  <dbl>  <dbl>  <dbl>          <dbl>          <dbl> <dbl>
##  1 Antigu…      97929 4.40e2 1.73e3 2.08e3         17643.         21267.     0
##  2 Argent…   45195774 2.74e6 4.50e5 1.04e6          9949.         22938.     0
##  3 Bahamas     393244 1.00e4 1.28e4 1.40e4         32618.         35662.     0
##  4 Barbad…     287375 4.30e2 5.21e3 4.62e3         18126.         16066.     0
##  5 Belize      397628 2.28e4 1.88e3 2.82e3          4727.          7091.     0
##  6 Bolivia   11673021 1.08e6 4.09e4 1.01e5          3503.          8623.     0
##  7 Brazil   212559417 8.36e6 1.84e6 3.13e6          8655.         14734.     0
##  8 Canada    37742154 9.09e6 1.74e6 1.85e6         46008.         49088.     1
##  9 Chile     19116201 7.44e5 2.82e5 4.64e5         14769.         24262.     0
## 10 Colomb…   50882891 1.11e6 3.24e5 7.37e5          6364.         14475.     0
## # … with 26 more rows, and 10 more variables: G20 <dbl>, OECD <dbl>,
## #   HDI_2018 <dbl>, Polity_Score <dbl>, Polity_Type <chr>, FH_PR <dbl>,
## #   FH_CL <dbl>, FH_Total <dbl>, FH_Status <chr>, Continent <chr>
## 
## $Asia
## # A tibble: 42 x 18
##    Country Population   Area    GDP    PPP GDP_per_capita PPP_per_capita    G7
##    <chr>        <dbl>  <dbl>  <dbl>  <dbl>          <dbl>          <dbl> <dbl>
##  1 Afghan…   38928346 6.53e5 1.91e4 8.27e4           491.          2125.     0
##  2 Bahrain    1701575 7.60e2 3.86e4 7.42e4         22670.         43624.     0
##  3 Bangla…  164689383 1.30e5 3.03e5 7.34e5          1837.          4458.     0
##  4 Bhutan      771608 3.81e4 2.45e3 8.77e3          3171.         11363.     0
##  5 Brunei      437479 5.27e3 1.35e4 2.65e4         30789.         60656.     0
##  6 Burma     54409800 6.53e5 7.61e4 2.68e5          1398.          4932.     0
##  7 Cambod…   16718965 1.77e5 2.71e4 6.93e4          1620.          4142.     0
##  8 China   1447470092 9.39e6 1.48e7 2.20e7         10199.         15177.     0
##  9 India   1380004385 2.97e6 2.88e6 9.06e6          2083.          6564.     0
## 10 Indone…  273523615 1.81e6 1.12e6 3.12e6          4092.         11397.     0
## # … with 32 more rows, and 10 more variables: G20 <dbl>, OECD <dbl>,
## #   HDI_2018 <dbl>, Polity_Score <dbl>, Polity_Type <chr>, FH_PR <dbl>,
## #   FH_CL <dbl>, FH_Total <dbl>, FH_Status <chr>, Continent <chr>
## 
## $Europe
## # A tibble: 50 x 18
##    Country Population   Area    GDP     PPP GDP_per_capita PPP_per_capita    G7
##    <chr>        <dbl>  <dbl>  <dbl>   <dbl>          <dbl>          <dbl> <dbl>
##  1 Albania    2877797  27400 1.53e4  39658.          5309.         13781.     0
##  2 Andorra      77265    470 3.15e3     NA          40821.            NA      0
##  3 Armenia    2963243  28470 1.37e4  38446.          4614.         12974.     0
##  4 Austria    9006398  82409 4.46e5 502771.         49555.         55824.     0
##  5 Azerba…   10139177  82658 4.80e4 144556.          4739.         14257.     0
##  6 Belarus    9449323 202910 6.31e4 183461.          6676.         19415.     0
##  7 Belgium   11589623  30280 5.30e5 597433.         45697.         51549.     0
##  8 Bosnia…    3280819  51000 2.00e4  49733.          6111.         15159.     0
##  9 Bulgar…    6948445 108560 6.79e4 156693.          9776.         22551.     0
## 10 Croatia    4105267  55960 6.04e4 114932.         14717.         27996.     0
## # … with 40 more rows, and 10 more variables: G20 <dbl>, OECD <dbl>,
## #   HDI_2018 <dbl>, Polity_Score <dbl>, Polity_Type <chr>, FH_PR <dbl>,
## #   FH_CL <dbl>, FH_Total <dbl>, FH_Status <chr>, Continent <chr>
## 
## $Oceania
…
