27. モンテカルロシミュレーション | 私たちのR: ベストプラクティスの探究
…
    Result_vec <- rep(NA, n_trials)
    
    for (j in 1:n_trials) {
        Birth_vec     <- sample(1:365, Prob_df$Students[i], replace = TRUE)
        Result_vec[j] <- any(duplicated(Birth_vec))
    }
    
    Prob_df$Probs[i] <- mean(Result_vec)
}

　結果を確認してみましょう。

Prob_df

## # A tibble: 99 × 2
##    Students Probs
##       <int> <dbl>
##  1        2  0.01
##  2        3  0.02
##  3        4  0.06
##  4        5  0.01
##  5        6  0.02
##  6        7  0.08
##  7        8  0.06
##  8        9  0.09
##  9       10  0.12
## 10       11  0.18
## # … with 89 more rows
…
## [1] 0.4756953

Birth_Expect(23)

## [1] 0.5072972

　確率が50%を超える人数は23人であることが分かります。先ほどのデータフレーム (Prob_df)にこの理論値をExpectという名の列として追加してみましょう。

Prob_df <- Prob_df %>%
    mutate(Expect = map_dbl(Students, ~Birth_Expect(.x)))

Prob_df

## # A tibble: 99 × 3
##    Students Probs  Expect
##       <int> <dbl>   <dbl>
##  1        2  0.01 0.00274
##  2        3  0.02 0.00820
##  3        4  0.06 0.0164 
##  4        5  0.01 0.0271 
##  5        6  0.02 0.0405 
##  6        7  0.08 0.0562 
##  7        8  0.06 0.0743 
##  8        9  0.09 0.0946 
##  9       10  0.12 0.117  
## 10       11  0.18 0.141  
## # … with 89 more rows

　これは人間にとっては読みやすい表ですが、可視化まで考えると、tidyなデータといは言えません。したがって、pivot_longer()関数を使用してtidyなデータに整形します。{tidyr}パッケージの使い方は第15章を参照してください。

Prob_df2 <- Prob_df %>%
    pivot_longer(cols      = Probs:Expect,
                 names_to  = "Type",
                 values_to = "Prob") 

Prob_df2

## # A tibble: 198 × 3
##    Students Type      Prob
##       <int> <chr>    <dbl>
##  1        2 Probs  0.01   
##  2        2 Expect 0.00274
##  3        3 Probs  0.02   
##  4        3 Expect 0.00820
##  5        4 Probs  0.06   
##  6        4 Expect 0.0164 
##  7        5 Probs  0.01   
##  8        5 Expect 0.0271 
##  9        6 Probs  0.02   
## 10        6 Expect 0.0405 
## # … with 188 more rows
…
　20個点のうち、円の外側にあるのは5個、円の内側は15個です。つまり、75%の点が円内にあることを意味します。点の位置は無作為ですので、もし円の大きさが\(\pi\)であれば、点が円内に入る確率は\(\frac{\pi}{4}\)です。今回の例だと\(\frac{\pi}{4} = 0.75\)であるため、\(\pi = 0.75 \times 4 = 3\)となります。実際の円周率は3.141593…なので、そこそこ近似できていますね。

　それではこれを実際にやってみましょう。今回は20個の点ではなく、100個にしてみましょう。まず、100個の点を無作為に抽出します。

set.seed(19861009)
pi_df <- tibble(x = runif(100, -1, 1),
                y = runif(100, -1, 1))

pi_df

## # A tibble: 100 × 2
##          x      y
##      <dbl>  <dbl>
##  1 -0.950  -0.344
##  2  0.0724  0.150
##  3  0.874   0.971
##  4  0.938   0.267
##  5  0.205   0.469
##  6 -0.343  -0.590
##  7 -0.0245 -0.635
##  8 -0.273  -0.886
##  9 -0.405   0.701
## 10  0.528  -0.547
## # … with 90 more rows
…
