…
**パッケージ情報**


```
## # A tibble: 389 × 3
##    Package     Version  Built
##    <chr>       <chr>    <chr>
##  1 abind       1.4-5    4.1.0
##  2 AER         1.2-9    4.1.0
##  3 arm         1.12-2   4.1.0
##  4 AsioHeaders 1.16.1-1 4.1.0
##  5 askpass     1.1      4.1.0
##  6 assertthat  0.2.1    4.1.0
##  7 attachment  0.2.4    4.1.0
##  8 attempt     0.3.1    4.1.0
##  9 backports   1.4.1    4.1.0
## 10 BalanceR    0.7.6    4.1.2
## # … with 379 more rows
```
