16. 整然データ構造 | 私たちのR: ベストプラクティスの探究
…
## Rows: 94 Columns: 4

## ── Column specification ────────────────────────────────────────────────────────
## Delimiter: ","
## chr (2): 都道府県, 区分
## dbl (2): 人口, 面積

## 
## ℹ Use `spec()` to retrieve the full column specification for this data.
## ℹ Specify the column types or set `show_col_types = FALSE` to quiet this message.

df3

## # A tibble: 94 × 4
##    都道府県 区分      人口   面積
##    <chr>    <chr>    <dbl>  <dbl>
##  1 北海道   総人口 5381733 83424.
##  2 <NA>     外国人   21676 83424.
##  3 青森県   総人口 1308265  9646.
##  4 <NA>     外国人    3447  9646.
##  5 岩手県   総人口 1279594 15275.
##  6 <NA>     外国人    5017 15275.
##  7 宮城県   総人口 2333899  7282.
##  8 <NA>     外国人   13989  7282.
##  9 秋田県   総人口 1023119 11638.
## 10 <NA>     外国人    2914 11638.
## # … with 84 more rows
…
人口 (人)

面積

面積 (km\(^2\))

まずは変数名が日本語になっているので、rename()関数を使ってそれぞれPref、Type、Population、Areaに変更します。

df3 <- df3 %>%
  rename("Pref" = 都道府県, "Type" = 区分, "Population" = 人口, "Area" = 面積)

df3

## # A tibble: 94 × 4
##    Pref   Type   Population   Area
##    <chr>  <chr>       <dbl>  <dbl>
##  1 北海道 総人口    5381733 83424.
##  2 <NA>   外国人      21676 83424.
##  3 青森県 総人口    1308265  9646.
##  4 <NA>   外国人       3447  9646.
##  5 岩手県 総人口    1279594 15275.
##  6 <NA>   外国人       5017 15275.
##  7 宮城県 総人口    2333899  7282.
##  8 <NA>   外国人      13989  7282.
##  9 秋田県 総人口    1023119 11638.
## 10 <NA>   外国人       2914 11638.
## # … with 84 more rows

次は、Pref列の欠損値を埋めましょう。ここの欠損値は、当該セルの一つ上のセルの値で埋まりますが、これはfill()関数で簡単に処理できます。欠損値を埋めたい変数名をfill()の引数として渡すだけです。

df3 <- df3 %>%
  fill(Pref)

df3

## # A tibble: 94 × 4
##    Pref   Type   Population   Area
##    <chr>  <chr>       <dbl>  <dbl>
##  1 北海道 総人口    5381733 83424.
##  2 北海道 外国人      21676 83424.
##  3 青森県 総人口    1308265  9646.
##  4 青森県 外国人       3447  9646.
##  5 岩手県 総人口    1279594 15275.
##  6 岩手県 外国人       5017 15275.
##  7 宮城県 総人口    2333899  7282.
##  8 宮城県 外国人      13989  7282.
##  9 秋田県 総人口    1023119 11638.
## 10 秋田県 外国人       2914 11638.
## # … with 84 more rows
…
# pivot_wider()の使い方
データ名 %>%
  pivot_wider(names_from  = キー変数名,
              values_from = 値変数名)

まず、キー変数名は列として展開する変数名であり、ここではTypeになります。そして、値変数名は展開される値の変数であり、ここではPopulationになります。つまり、「PopulationをTypeごとに分けて別の列にする」ことになります。また、values_from引数は長さ2以上のベクトルを指定することで、複数の値変数を指定することも可能です。たとえば、df3にIncomeという平均所得を表す列があり、これらも総人口と外国人それぞれ異なる値を持っているとしたら、values_from = c(Population, Income)のように複数の値変数を指定することが出来ます。今回は値変数が1つのみですが、早速やってみましょう。

df3_W <- df3 %>%
  pivot_wider(names_from  = Type,
              values_from = Population)

df3_W

## # A tibble: 47 × 4
##    Pref     Area  総人口 外国人
##    <chr>   <dbl>   <dbl>  <dbl>
##  1 北海道 83424. 5381733  21676
##  2 青森県  9646. 1308265   3447
##  3 岩手県 15275. 1279594   5017
##  4 宮城県  7282. 2333899  13989
##  5 秋田県 11638. 1023119   2914
##  6 山形県  9323. 1123891   5503
##  7 福島県 13784. 1914039   8725
##  8 茨城県  6097. 2916976  41310
##  9 栃木県  6408. 1974255  26494
## 10 群馬県  6362. 1973115  37126
## # … with 37 more rows

また、日本語の変数名が出来てしまったので、それぞれTotalとForeignerに変更し、relocate()関数を使ってAreaを最後の列に移動します。

df3_W <- df3_W %>%
  rename("Total"     = 総人口,
         "Foreigner" = 外国人) %>%
  relocate(Area, .after = last_col())

df3_W

## # A tibble: 47 × 4
##    Pref     Total Foreigner   Area
##    <chr>    <dbl>     <dbl>  <dbl>
##  1 北海道 5381733     21676 83424.
##  2 青森県 1308265      3447  9646.
##  3 岩手県 1279594      5017 15275.
##  4 宮城県 2333899     13989  7282.
##  5 秋田県 1023119      2914 11638.
##  6 山形県 1123891      5503  9323.
##  7 福島県 1914039      8725 13784.
##  8 茨城県 2916976     41310  6097.
##  9 栃木県 1974255     26494  6408.
## 10 群馬県 1973115     37126  6362.
## # … with 37 more rows
…
## Rows: 172 Columns: 5

## ── Column specification ────────────────────────────────────────────────────────
## Delimiter: ","
## chr (4): Date, Week, Confirmed_Japan, Confirmed_Korea
## dbl (1): ID

## 
## ℹ Use `spec()` to retrieve the full column specification for this data.
## ℹ Specify the column types or set `show_col_types = FALSE` to quiet this message.

df4

## # A tibble: 172 × 5
##       ID Date      Week  Confirmed_Japan Confirmed_Korea
##    <dbl> <chr>     <chr> <chr>           <chr>          
##  1     1 2020/1/16 木    1人             <NA>           
##  2     2 2020/1/17 金    0人             <NA>           
##  3     3 2020/1/18 土    0人             <NA>           
##  4     4 2020/1/19 日    0人             <NA>           
##  5     5 2020/1/20 月    0人             1人            
##  6     6 2020/1/21 火    0人             0人            
##  7     7 2020/1/22 水    0人             0人            
##  8     8 2020/1/23 木    0人             0人            
##  9     9 2020/1/24 金    2人             1人            
## 10    10 2020/1/25 土    0人             0人            
## # … with 162 more rows
…
Confirmed_Korea

新規感染者数 (韓国)

このデータの場合、観察単位は「国 \(\times\) 日」です。しかし、df4は1行に日本と韓国の情報が格納されており「1行1観察」の条件を満たしておりません。したがって、pivot_longer()を使ってLong型へ変換し、新しいデータの名前をdf4_Lと名付けます。

df4_L <- df4 %>%
  pivot_longer(cols         = starts_with("Confirmed"), 
               names_to     = "Country",
               names_prefix = "Confirmed_",
               values_to    = "Confirmed")

df4_L

## # A tibble: 344 × 5
##       ID Date      Week  Country Confirmed
##    <dbl> <chr>     <chr> <chr>   <chr>    
##  1     1 2020/1/16 木    Japan   1人      
##  2     1 2020/1/16 木    Korea   <NA>     
##  3     2 2020/1/17 金    Japan   0人      
##  4     2 2020/1/17 金    Korea   <NA>     
##  5     3 2020/1/18 土    Japan   0人      
##  6     3 2020/1/18 土    Korea   <NA>     
##  7     4 2020/1/19 日    Japan   0人      
##  8     4 2020/1/19 日    Korea   <NA>     
##  9     5 2020/1/20 月    Japan   0人      
## 10     5 2020/1/20 月    Korea   1人      
## # … with 334 more rows
続いて、新規感染者数を表すConfirmed列から「人」を除去しましょう。人間にとってはなんの問題もありませんが、パソコンにとって1人や5人は文字列に過ぎず、分析ができる状態ではありません。ここで使う関数がparse_number()です。引数として指定した列から数値のみ抽出します。"$1000"や"1, 324, 392"のような数値でありながら、character型として保存されている列から数値のみを取り出す際に使う関数です。使い方は以下の通りです。

データ名 %>%
  mutate(新しい変数名 = parse_number(数値のみ抽出する変数名))

似たようなものとしてparse_character()があり、これは逆に文字列のみ抽出する関数です。

ここではConfimedから数値のみ取り出し、Confrimed列に上書きし、それをdf4_Sと名付けます。

df4_S <- df4_L %>%
  mutate(Confirmed = parse_number(Confirmed))

df4_S

## # A tibble: 344 × 5
##       ID Date      Week  Country Confirmed
##    <dbl> <chr>     <chr> <chr>       <dbl>
##  1     1 2020/1/16 木    Japan           1
##  2     1 2020/1/16 木    Korea          NA
##  3     2 2020/1/17 金    Japan           0
##  4     2 2020/1/17 金    Korea          NA
##  5     3 2020/1/18 土    Japan           0
##  6     3 2020/1/18 土    Korea          NA
##  7     4 2020/1/19 日    Japan           0
##  8     4 2020/1/19 日    Korea          NA
##  9     5 2020/1/20 月    Japan           0
## 10     5 2020/1/20 月    Korea           1
## # … with 334 more rows
…
# separate()の使い方
データ名 %>%
  separate(cols = 分割する変数名
           into = 分割後の変数名,
           sep  = "分割する基準")

colsにはDateを指定し、intoは新しく出来る列名を指定します。今回はDateが3列に分割されるので、長さ3のcharacter型ベクトルを指定します。ここではYear、Month、Dayとしましょう。最後のsep引数は分割する基準となる文字を指定します。df4のDateは"2020/06/29"のように年月日が"/"で分けられているため、"/"を指定します。実際にやってみましょう。

df4_S <- df4_S %>%
  separate(col = Date, into = c("Year", "Month", "Day"), sep = "/")

df4_S

## # A tibble: 344 × 7
##       ID Year  Month Day   Week  Country Confirmed
##    <dbl> <chr> <chr> <chr> <fct> <chr>       <dbl>
##  1     1 2020  1     16    木    Japan           1
##  2     1 2020  1     16    木    Korea          NA
##  3     2 2020  1     17    金    Japan           0
##  4     2 2020  1     17    金    Korea          NA
##  5     3 2020  1     18    土    Japan           0
##  6     3 2020  1     18    土    Korea          NA
##  7     4 2020  1     19    日    Japan           0
##  8     4 2020  1     19    日    Korea          NA
##  9     5 2020  1     20    月    Japan           0
## 10     5 2020  1     20    月    Korea           1
## # … with 334 more rows
…
