20. 可視化[発展] | 私たちのR: ベストプラクティスの探究
…
Vote10
2010年参院選における投票先

たとえば、1番目の回答者は2009年に棄権し、2010年も棄権したことを意味する。また、5番目の回答者は2009年に自民党に投票し、2010年は共産党または社民党に投票したことを意味する。

Vote_0910 <- Vote_0910 %>%
  group_by(Vote09, Vote10) %>%
  summarise(Freq    = n(),
            .groups = "drop")

Vote_0910

## # A tibble: 47 x 3
##    Vote09 Vote10      Freq
##  * <chr>  <chr>      <int>
##  1 DK     DK           111
##  2 DK     その他         8
##  3 DK     棄権          57
##  4 DK     共産・社民    15
##  5 DK     公明           7
##  6 DK     自民          29
##  7 DK     民主         116
##  8 その他 DK            18
##  9 その他 その他        73
## 10 その他 棄権          18
## # … with 37 more rows
…
