16. 可視化[基礎] | 私たちのR: ぼくらがかんがえたさいきょうのRほん
…
これを使わない理由はないでしょう。factor()内のlabels引数の値としてPref_dfのPref列を使います。

Station_df <- Station_df %>%
  mutate(Pref = factor(Pref, levels = 1:47, labels = Pref_df$Pref))

Station_df

## # A tibble: 9,150 x 23
##        ID Station_Name Pref  Zipcode Address Longitude Latitude Station_Status Line_ID
##     <dbl> <chr>        <fct> <chr>   <chr>       <dbl>    <dbl>          <dbl>   <dbl>
##  1 1.11e6 函館         北海道… 040-00… 北海道函館市…      141.     41.8              0   11101
##  2 1.11e6 五稜郭       北海道… 041-08… 函館市亀田本…      141.     41.8              0   11101
##  3 1.11e6 桔梗         北海道… 041-08… 北海道函館市…      141.     41.8              0   11101
##  4 1.11e6 大中山       北海道… 041-11… 亀田郡七飯町…      141.     41.9              0   11101
##  5 1.11e6 七飯         北海道… 041-11… 亀田郡七飯町…      141.     41.9              0   11101
##  6 1.11e6 新函館北斗   北海道… 041-12… 北海道北斗市…      141.     41.9              0   11101
##  7 1.11e6 仁山         北海道… 041-11… 亀田郡七飯町…      141.     41.9              0   11101
##  8 1.11e6 大沼         北海道… 041-13… 北海道亀田郡…      141.     42.0              0   11101
##  9 1.11e6 大沼公園     北海道… 041-13… 北海道亀田郡…      141.     42.0              0   11101
## 10 1.11e6 赤井川       北海道… 049-21… 茅部郡森町字…      141.     42.0              0   11101
## # … with 9,140 more rows, and 14 more variables: Line_Name <chr>, Line_Status <dbl>,
## #   Company_ID <dbl>, Company_Name <chr>, Company_Type1 <dbl>, Company_Type2 <dbl>,
## #   Company_Status <dbl>, P2011 <dbl>, P2012 <dbl>, P2013 <dbl>, P2014 <dbl>,
## #   P2015 <dbl>, P2016 <dbl>, P2017 <dbl>
…
これで初めてのggplot2を用いたグラフが完成しました。

16.3.2 記述統計量のグラフ

次は記述統計量のグラフを出してみます。たとえば、都道府県ごとに2017年度平均利用者数の平均値を図示するとします。まずは、dplyrを使って、都道府県ごとに2017年度平均利用者数の平均値を計算し、Bar_df1という名で保存します。

Bar_df1 <- Station_df %>%
  group_by(Pref) %>%
  summarise(Passenger = mean(P2017, na.rm = TRUE),
            .groups   = "drop")

Bar_df1

## # A tibble: 47 x 2
##    Pref   Passenger
##    <fct>      <dbl>
##  1 北海道     2837.
##  2 青森県      440.
##  3 岩手県      454.
##  4 宮城県     5288.
##  5 秋田県      219.
##  6 山形県      483.
##  7 福島県      572.
##  8 茨城県     4100.
##  9 栃木県     1894.
## 10 群馬県     1509.
## # … with 37 more rows
…
