12. 可視化 | 私たちのR: あなたのために書いたわけじゃない
…
全国の鉄道駅データ

10437駅の情報を収録

駅の地理的情報、路線、事業者情報

2011年度から2017年度までの利用者数 (人/日)

library(tidyverse)
df <- read_csv("Data/Stations.csv")

df

## # A tibble: 10,437 x 23
##        ID Station_Name  Pref Zipcode Address Longitude Latitude Station_Status Line_ID Line_Name
##     <dbl> <chr>        <dbl> <chr>   <chr>       <dbl>    <dbl>          <dbl>   <dbl> <chr>    
##  1 1.11e6 函館             1 040-00… 北海道函館市…      141.     41.8              0   11101 JR函館本線(函…
##  2 1.11e6 五稜郭           1 041-08… 函館市亀田本…      141.     41.8              0   11101 JR函館本線(函…
##  3 1.11e6 桔梗             1 041-08… 北海道函館市…      141.     41.8              0   11101 JR函館本線(函…
##  4 1.11e6 大中山           1 041-11… 亀田郡七飯町…      141.     41.9              0   11101 JR函館本線(函…
##  5 1.11e6 七飯             1 041-11… 亀田郡七飯町…      141.     41.9              0   11101 JR函館本線(函…
##  6 1.11e6 新函館北斗       1 041-12… 北海道北斗市…      141.     41.9              0   11101 JR函館本線(函…
##  7 1.11e6 仁山             1 041-11… 亀田郡七飯町…      141.     41.9              0   11101 JR函館本線(函…
##  8 1.11e6 大沼             1 041-13… 北海道亀田郡…      141.     42.0              0   11101 JR函館本線(函…
##  9 1.11e6 大沼公園         1 041-13… 北海道亀田郡…      141.     42.0              0   11101 JR函館本線(函…
## 10 1.11e6 赤井川           1 049-21… 茅部郡森町字…      141.     42.0              0   11101 JR函館本線(函…
## # … with 10,427 more rows, and 13 more variables: Line_Status <dbl>, Company_ID <dbl>,
## #   Company_Name <chr>, Company_Type1 <dbl>, Company_Type2 <dbl>, Company_Status <dbl>,
## #   P2011 <dbl>, P2012 <dbl>, P2013 <dbl>, P2014 <dbl>, P2015 <dbl>, P2016 <dbl>, P2017 <dbl>
…
