…
Democracy_df
```

```
## # A tibble: 316 x 4
##    Country     Continent Type          Value
##    <chr>       <chr>     <chr>         <dbl>
##  1 Afghanistan Asia      Polity IV        -1
##  2 Afghanistan Asia      Freedom House    27
##  3 Albania     Europe    Polity IV         9
##  4 Albania     Europe    Freedom House    67
##  5 Algeria     Africa    Polity IV         2
##  6 Algeria     Africa    Freedom House    34
##  7 Angola      Africa    Polity IV        -2
##  8 Angola      Africa    Freedom House    32
##  9 Argentina   America   Polity IV         9
## 10 Argentina   America   Freedom House    85
## # ... with 306 more rows
```
…
