私たちのR - 14 データハンドリング [要約]
…
# ScoreNとScoreの平均値をPrefごとに求める
df |>
  filter(!is.na(Line)) |> # Lineが欠損していないケースのみ残す
  group_by(Pref, Line) |> # PrefとLineでグループ化
  summarise(N           = n(),
            ScoreN_Sum  = sum(ScoreN,  na.rm = TRUE),
            Score_Mean  = mean(Score,  na.rm = TRUE)) |>
  arrange(desc(N), desc(Score_Mean)) |>
  print(n = 20)

`summarise()` has grouped output by 'Pref'. You can override using the
`.groups` argument.

# A tibble: 523 × 5
# Groups:   Pref [9]
   Pref     Line                        N ScoreN_Sum Score_Mean
   <chr>    <chr>                   <int>      <dbl>      <dbl>
 1 埼玉県   東武東上線                122         27       3.68
 2 東京都   ＪＲ                      104        231       3.56
 3 神奈川県 小田急小田原線             96         31       3.59
 4 埼玉県   東武伊勢崎線               96         18       3.51
 5 神奈川県 横浜市営ブルーライン       82         77       3.66
 6 千葉県   京成本線                   82         29       3.34
 7 神奈川県 京急本線                   68         40       3.33
 8 千葉県   東武野田線                 63          2       4.75
 9 神奈川県 小田急江ノ島線             62          8       3.79
10 大阪府   阪急京都本線               53         32       3.67
11 大阪府   南海本線                   52         11       4.22
12 兵庫県   阪神本線                   52         23       3.80
13 埼玉県   JR高崎線                   51          5       4   
14 兵庫県   山陽電鉄本線               51         15       2.98
15 千葉県   JR総武本線（東京-銚子）    47          8       4   
16 埼玉県   西武新宿線                 45          8       4.17
17 埼玉県   秩父鉄道線                 43         10       3.82
18 大阪府   京阪本線                   43         10       3.69
19 千葉県   新京成電鉄                 43          6       3.6 
20 京都府   阪急京都本線               43         27       3.5 
# ℹ 503 more rows
…
`summarise()` has grouped output by 'Pref'. You can override using the `.groups` argument.

これはLineはグルーピング変数として機能しなくなり、Pref変数のみグループ変数になったという意味です。なぜLineが解除され、Prefが残るかというと、それはgroup_by()関数内でPrefを先に指定したからです。group_by(Line, Pref)でグルーピングすると、Prefが解除され、Lineのみがグルーピング変数となります。summarise()後のグルーピング変数の扱いはsummarise()関数の.groups引数で指定できます。既定値は.groups = "drop_last"で「最後のグルーピング変数を解除する」という意味です（場合によっては既定値が"keep"になりますが、後述します）。多くの場合、summarise()後は全グルーピングを解除するのが一般的なので、この場合は.groups = "drop"と指定します。もし、グルーピングを維持したい場合は.groups = "keep"と指定します。今回の例はsummarise()内に.group = "drop"を指定し、グループ化を解除します。

df |>
  filter(!is.na(Line)) |>
  group_by(Pref, Line) |>
  summarise(N           = n(),
            ScoreN_Sum  = sum(ScoreN,  na.rm = TRUE),
            Score_Mean  = mean(Score,  na.rm = TRUE),
            .groups     = "drop") |> # グルーピングをすべて解除する
  arrange(desc(N), desc(Score_Mean)) |>
  print(n = 20)

# A tibble: 523 × 5
   Pref     Line                        N ScoreN_Sum Score_Mean
   <chr>    <chr>                   <int>      <dbl>      <dbl>
 1 埼玉県   東武東上線                122         27       3.68
 2 東京都   ＪＲ                      104        231       3.56
 3 神奈川県 小田急小田原線             96         31       3.59
 4 埼玉県   東武伊勢崎線               96         18       3.51
 5 神奈川県 横浜市営ブルーライン       82         77       3.66
 6 千葉県   京成本線                   82         29       3.34
 7 神奈川県 京急本線                   68         40       3.33
 8 千葉県   東武野田線                 63          2       4.75
 9 神奈川県 小田急江ノ島線             62          8       3.79
10 大阪府   阪急京都本線               53         32       3.67
11 大阪府   南海本線                   52         11       4.22
12 兵庫県   阪神本線                   52         23       3.80
13 埼玉県   JR高崎線                   51          5       4   
14 兵庫県   山陽電鉄本線               51         15       2.98
15 千葉県   JR総武本線（東京-銚子）    47          8       4   
16 埼玉県   西武新宿線                 45          8       4.17
17 埼玉県   秩父鉄道線                 43         10       3.82
18 大阪府   京阪本線                   43         10       3.69
19 千葉県   新京成電鉄                 43          6       3.6 
20 京都府   阪急京都本線               43         27       3.5 
# ℹ 503 more rows

group_by()と同じ機能を持つ.by引数

ちなみに.by引数でグルーピングを行う場合は自動的にグルーピングが解除されるので、.groups = "drop"は不要です。したがって、以下は上記のコードと同じ内容となります。

df |>
  filter(!is.na(Line)) |> 
  summarise(N           = n(),
            ScoreN_Sum  = sum(ScoreN,  na.rm = TRUE),
            Score_Mean  = mean(Score,  na.rm = TRUE),
            .by         = c(Pref, Line)) |>
  arrange(desc(N), desc(Score_Mean)) |>
  print(n = 20)

# A tibble: 523 × 5
   Pref     Line                        N ScoreN_Sum Score_Mean
   <chr>    <chr>                   <int>      <dbl>      <dbl>
 1 埼玉県   東武東上線                122         27       3.68
 2 東京都   ＪＲ                      104        231       3.56
 3 神奈川県 小田急小田原線             96         31       3.59
 4 埼玉県   東武伊勢崎線               96         18       3.51
 5 神奈川県 横浜市営ブルーライン       82         77       3.66
 6 千葉県   京成本線                   82         29       3.34
 7 神奈川県 京急本線                   68         40       3.33
 8 千葉県   東武野田線                 63          2       4.75
 9 神奈川県 小田急江ノ島線             62          8       3.79
10 大阪府   阪急京都本線               53         32       3.67
11 大阪府   南海本線                   52         11       4.22
12 兵庫県   阪神本線                   52         23       3.80
13 埼玉県   JR高崎線                   51          5       4   
14 兵庫県   山陽電鉄本線               51         15       2.98
15 千葉県   JR総武本線（東京-銚子）    47          8       4   
16 埼玉県   西武新宿線                 45          8       4.17
17 埼玉県   秩父鉄道線                 43         10       3.82
18 大阪府   京阪本線                   43         10       3.69
19 千葉県   新京成電鉄                 43          6       3.6 
20 京都府   阪急京都本線               43         27       3.5 
# ℹ 503 more rows
…
  0%  25%  50%  75% 100% 
   1    2    5   12  116 

.groupsのデフォルト値が"keep"になるのは、このように長さ2以上のベクトルが返されるケースです。たとえば、都府県と最寄りの駅の路線でグループ化し、店舗までの徒歩距離の平均値を求めるとします。デフォルト値の変化を見るために、ここではあえて.groups引数を省略しました。

df |>
  filter(!is.na(Walk)) |>
  group_by(Pref, Line) |>
  summarise(Mean = mean(Walk))

`summarise()` has grouped output by 'Pref'. You can override using the
`.groups` argument.

# A tibble: 509 × 3
# Groups:   Pref [9]
   Pref   Line                       Mean
   <chr>  <chr>                     <dbl>
 1 京都府 JR奈良線                   3.33
 2 京都府 JR小浜線                  16.5 
 3 京都府 JR山陰本線（京都-米子）    8.67
 4 京都府 JR東海道本線（米原-神戸） 16.3 
 5 京都府 JR片町線〔学研都市線〕     9.4 
 6 京都府 JR舞鶴線                  19   
 7 京都府 京福北野線                 8.36
 8 京都府 京福嵐山本線               6.5 
 9 京都府 京福電気鉄道嵐山本線       6   
10 京都府 京都丹後鉄道宮福線         7.44
# ℹ 499 more rows
…
Warning: Returning more (or less) than 1 row per `summarise()` group was deprecated in
dplyr 1.1.0.
ℹ Please use `reframe()` instead.
ℹ When switching from `summarise()` to `reframe()`, remember that `reframe()`
  always returns an ungrouped data frame and adjust accordingly.

`summarise()` has grouped output by 'Pref', 'Line'. You can override using the
`.groups` argument.

# A tibble: 1,018 × 4
# Groups:   Pref, Line [509]
   Pref   Line                       Mean Quantile
   <chr>  <chr>                     <dbl>    <dbl>
 1 京都府 JR奈良線                   3.33     2   
 2 京都府 JR奈良線                   3.33     5   
 3 京都府 JR小浜線                  16.5      9.75
 4 京都府 JR小浜線                  16.5     23.2 
 5 京都府 JR山陰本線（京都-米子）    8.67     2   
 6 京都府 JR山陰本線（京都-米子）    8.67    15   
 7 京都府 JR東海道本線（米原-神戸） 16.3     16   
 8 京都府 JR東海道本線（米原-神戸） 16.3     17   
 9 京都府 JR片町線〔学研都市線〕     9.4      2   
10 京都府 JR片町線〔学研都市線〕     9.4      9   
# ℹ 1,008 more rows
…
Warning: Returning more (or less) than 1 row per `summarise()` group was deprecated in
dplyr 1.1.0.
ℹ Please use `reframe()` instead.
ℹ When switching from `summarise()` to `reframe()`, remember that `reframe()`
  always returns an ungrouped data frame and adjust accordingly.

これは「長さ2以上のベクトルを返す場合、summarise()を使うな！」という意味です。今は警告が出るだけで結果としては問題なく動いてますが、{dplyr}1.1.0以降はreframe()関数の仕様を推奨しています。これはsummarise()をreframe()に変えるだけで対応可能です。

df |>
  filter(!is.na(Walk)) |>
  group_by(Pref, Line) |>
  reframe(Mean     = mean(Walk),
          Quantile = quantile(Walk, c(0.25, 0.75)))

# A tibble: 1,018 × 4
   Pref   Line                       Mean Quantile
   <chr>  <chr>                     <dbl>    <dbl>
 1 京都府 JR奈良線                   3.33     2   
 2 京都府 JR奈良線                   3.33     5   
 3 京都府 JR小浜線                  16.5      9.75
 4 京都府 JR小浜線                  16.5     23.2 
 5 京都府 JR山陰本線（京都-米子）    8.67     2   
 6 京都府 JR山陰本線（京都-米子）    8.67    15   
 7 京都府 JR東海道本線（米原-神戸） 16.3     16   
 8 京都府 JR東海道本線（米原-神戸） 16.3     17   
 9 京都府 JR片町線〔学研都市線〕     9.4      2   
10 京都府 JR片町線〔学研都市線〕     9.4      9   
# ℹ 1,008 more rows
…
