私たちのR – 9 データ構造
…
つづいて、tibble型

VoteDF2

# A tibble: 47 × 11
      ID Pref   Zaisei Over65 Under30   LDP   DPJ Komei Ishin   JCP   SDP
   <int> <chr>   <dbl>  <dbl>   <dbl> <dbl> <dbl> <dbl> <dbl> <dbl> <dbl>
 1     1 北海道  0.419   29.1    24.7  32.8  30.6 13.4   3.43 11.4   1.68
 2     2 青森県  0.332   30.1    23.9  40.4  24.6 12.8   3.82  8.92  3.41
 3     3 岩手県  0.341   30.4    24.5  34.9  22.4  8.61  5.16 11.2   5.29
 4     4 宮城県  0.596   25.8    27.3  36.7  25.4 13.4   3.97  9.99  3.62
 5     5 秋田県  0.299   33.8    21.4  43.5  22.7 11.2   5.17  7.56  5.12
 6     6 山形県  0.342   30.8    24.8  42.5  21.5 11.8   4.3   7.6   5.2 
 7     7 福島県  0.509   28.7    25.2  33.8  28.3 11.0   3.43 10.4   3.24
 8     8 茨城県  0.633   26.8    26.6  40.6  19.0 15.0   6.67 10.1   2.88
 9     9 栃木県  0.622   25.9    26.8  38.8  21.6 12.4  10.9   7     2.05
10    10 群馬県  0.603   27.6    26.6  42.1  19.3 13.8   5.61 10     2.44
# … with 37 more rows
…
