15 データハンドリング [拡張] – 私たちのR
…
データフレーム（ティブル）内の変数を用いて計算を行い、その結果を新しい列として格納するmutate()関数について紹介します。まず、mutate()関数の書き方からです。

# mutate()関数の使い方
データフレーム名 |>
  mutate(新しい変数名 = 処理内容)

これは何らかの処理を行い、その結果を新しい変数としてデータフレームに追加することを意味します。新しく出来た変数は、基本的に最後の列になります。ここでは分単位であるWalkを時間単位に変換したWalk_Hour変数を作成するとします。処理内容はWalk / 60です。最後に、都府県名、店舗名、徒歩距離 (分)、徒歩距離 (時間)のみを残し、遠い順にソートします。

df |>
  filter(!is.na(Walk)) |>
  mutate(Walk_Hour = Walk / 60) |>
  select(Pref, Name, Walk, Walk_Hour) |>
  arrange(desc(Walk_Hour))

# A tibble: 5,375 × 4
   Pref     Name                               Walk Walk_Hour
   <chr>    <chr>                             <dbl>     <dbl>
 1 埼玉県   札幌ラーメン どさん子 小鹿野店      116     1.93 
 2 神奈川県 札幌ラーメン どさん子 中津店         73     1.22 
 3 千葉県   札幌ラーメン どさん子 佐原51号店     59     0.983
 4 神奈川県 札幌ラーメン どさん子 山際店         50     0.833
 5 千葉県   札幌ラーメン どさん子 関宿店         49     0.817
 6 兵庫県   濃厚醤油 中華そば いせや 玉津店      43     0.717
 7 大阪府   河童ラーメン本舗 岸和田店            38     0.633
 8 埼玉県   ラーメン山岡家 上尾店                35     0.583
 9 兵庫県   濃厚醤油 中華そば いせや 大蔵谷店    35     0.583
10 大阪府   河童ラーメン本舗 松原店              31     0.517
# ℹ 5,365 more rows
…
df3 <- read_csv("Data/Ramen2.csv")

Rows: 47 Columns: 15
── Column specification ────────────────────────────────────────────────────────
Delimiter: ","
chr  (1): Pref
dbl (12): RamenN, Turnout, LDP, CDP, DPFP, Komei, JIP, JCP, SDP, Reiwa, NHK,...
num  (2): Pop, Area

ℹ Use `spec()` to retrieve the full column specification for this data.
ℹ Specify the column types or set `show_col_types = FALSE` to quiet this message.

df3

# A tibble: 47 × 15
   Pref      Pop   Area RamenN Turnout   LDP   CDP  DPFP Komei   JIP   JCP   SDP
   <chr>   <dbl>  <dbl>  <dbl>   <dbl> <dbl> <dbl> <dbl> <dbl> <dbl> <dbl> <dbl>
 1 北海道 5.38e6 83424.   1454    53.8  32.3  20.8  6.65 11.7   7.78 11.6   1.31
 2 青森県 1.31e6  9646.    336    42.9  39.8  22.0  7.24 11.3   3.4   8.31  2.36
 3 岩手県 1.28e6 15275.    285    56.5  35.5  17.8 12.5   8.22  4.36 10.4   3.83
 4 宮城県 2.33e6  7282.    557    51.2  39.6  17.8  9.02 11.1   4.6   7.89  2.1 
 5 秋田県 1.02e6 11638.    301    56.3  44.5  13.5  8.64 10.6   4.48  8.09  3.77
 6 山形県 1.12e6  9323.    512    60.7  45.2  14.9  7.37  9.87  4.28  6.51  5.08
 7 福島県 1.91e6 13784.    550    52.4  38.2  13.6 12.1  12.8   5.31  7.99  3.01
 8 茨城県 2.92e6  6097.    663    45.0  39.3  15.2  7.15 15.1   6.73  7.73  1.46
 9 栃木県 1.97e6  6408.    595    44.1  40.3  18.9  9.94 12.8   4.9   5.04  1.03
10 群馬県 1.97e6  6362.    488    48.2  40.6  16.4  9.76 12.4   4.67  7.58  1.87
# ℹ 37 more rows
# ℹ 3 more variables: Reiwa <dbl>, NHK <dbl>, HRP <dbl>
…
# 4. データ1とデータ2、どれかに存在するケースを結合
新しいデータ名 <-  full_join(データ1, データ2, by = "共通変数名")

4つの関数の違いについて説明する前に、by引数について話したいと思います。これは主にキー (key)変数と呼ばれる変数で、それぞれのデータに同じ名前の変数がある必要があります。df2とdf3だとそれがPref変数です。どの*_join()関数でも、Prefの値が同じもの同士を結合することになります。

データのキー変数名が異なる場合もあります。たとえば、データ1の都道府県名はPrefという列に、データ2の都道府県名はPrefectureという列になっている場合、by = "Pref"でなく、by = c("データ1のキー変数名" = "データ2のキー変数名")、つまり、by = c("Pref" = "Prefecture")と指定します。

それでは、df3から都道府県名とラーメン屋の店舗数だけ抽出し、df4として格納しておきます。

df4 <- df3 |>
  select(Pref, RamenN)

df4

# A tibble: 47 × 2
   Pref   RamenN
   <chr>   <dbl>
 1 北海道   1454
 2 青森県    336
 3 岩手県    285
 4 宮城県    557
 5 秋田県    301
 6 山形県    512
 7 福島県    550
 8 茨城県    663
 9 栃木県    595
10 群馬県    488
# ℹ 37 more rows
…
図 15.4: full_join()の仕組み

それでは実際、結果を確認してみましょう。今回は結合後、RamenNが大きい順で出力します。

full_join(df2, df4, by = "Pref") |>
  arrange(desc(RamenN)) # ぐるなびに登録された店舗の多い都道府県から出力

# A tibble: 47 × 6
   Pref     Budget_Mean ScoreN_Sum Score_Mean     N RamenN
   <chr>          <dbl>      <dbl>      <dbl> <int>  <dbl>
 1 東京都         1283.       1165       3.67  1000   3220
 2 北海道           NA          NA      NA       NA   1454
 3 大阪府         1203.        516       3.77  1000   1325
 4 愛知県           NA          NA      NA       NA   1255
 5 神奈川県       1239.        587       3.53  1000   1254
 6 埼玉県         1147.        278       3.64  1000   1106
 7 千葉県         1124.        259       3.72  1000   1098
 8 福岡県           NA          NA      NA       NA    985
 9 新潟県           NA          NA      NA       NA    705
10 静岡県           NA          NA      NA       NA    679
# ℹ 37 more rows
…
