私たちのR - 13 データハンドリング [抽出]
…
　データハンドリングもこれと同様に、様々な作業を順に沿って行う必要があります。例えば、「（1）列を選択して、（2）欠損値を含む列を除去して、（3）ある変数の値を100倍にして、（4）ある変数の値がが小さい行から大きい順へ並び替える」といった手順です。これらの作業はパイプ演算子を使えば、スムーズに行うことが可能です。

13.3 列の抽出

　それでは今回の実習用データを読み込みましょう。Ramen.csvには「ぐるなび」から取得したラーメン屋6292店舗の情報が入っています。具体的には東京、神奈川、千葉、埼玉、大阪、京都、兵庫、奈良、和歌山それぞれ都府県にあるラーメン屋の中から最大1000店舗の情報を抽出したものです。東京都は、ぐるなびに登録したラーメン屋が3000店舗以上ですが、1000店舗の基準はぐるなびの「おすすめ」の順で上位1000店舗となります。また、店側またはぐるなびが登録したカテゴリを基準に抽出したため、実際はラーメン屋ではないにもかかわらずラーメン屋としてデータ内に含まれている可能性があります。

　まず、このデータを読み込み、dfという名付けます。

df <- read_csv("Data/Ramen.csv")

　データの中身を確認してみましょう。

df

# A tibble: 6,292 × 14
   ID     Name  Pref  Zipcode Latitude Longitude Line  Station  Walk   Bus   Car
   <chr>  <chr> <chr>   <dbl>    <dbl>     <dbl> <chr> <chr>   <dbl> <dbl> <dbl>
 1 e5396… 居酒… 東京… 1040031     35.7      140. 地下… 銀座一…     3    NA    NA
 2 gfeb6… 本格… 東京… 1100005     35.7      140. 地下… 仲御徒…     1    NA    NA
 3 ggt59… 食べ… 東京… 1250041     35.8      140. ＪＲ… 金町駅      2    NA    NA
 4 g1813… 博多… 東京… 1920904     35.7      139. ＪＲ  八王子…     1    NA    NA
 5 ggww1… まさ… 東京… 1500042     35.7      140. 地下… 渋谷駅      7    NA    NA
 6 gdzk5… 完全… 東京… 1000013     35.7      140. 地下… 虎ノ門…     3    NA    NA
 7 ga2g2… 鶏そ… 東京… 1760006     35.7      140. 西武… 江古田…     2    NA    NA
 8 gg9m1… 宴会… 東京… 1010021     35.7      140. ＪＲ  秋葉原…     4    NA    NA
 9 gdvk2… 中国… 東京… 1000006     35.7      140. ＪＲ  有楽町…     1    NA    NA
10 gggb2… 中国… 東京… 1140002     35.8      140. 地下… 王子駅      2    NA    NA
# ℹ 6,282 more rows
# ℹ 3 more variables: Budget <dbl>, ScoreN <dbl>, Score <dbl>
…
    Score

口コミ評価の平均値

　それではここからはdfを用いた{dplyr}の様々な機能を紹介していきます。

13.3.1 特定の列を抽出する

　まずは、データフレームから特定の列のみを残す、除去する方法について紹介します。たとえば、dfからID、Name、Pref、Scoreのみを残すとします。{dplyr}を使わない方法と{dplyr}のselect()関数を使った方法を紹介します。

# dplyrを使わない方法
df[, c("ID", "Name", "Pref", "Score")]

# A tibble: 6,292 × 4
   ID      Name                                                     Pref   Score
   <chr>   <chr>                                                    <chr>  <dbl>
 1 e539604 居酒屋 龍記 京橋店                                       東京都 NA   
 2 gfeb600 本格上海料理 新錦江 上野御徒町本店                       東京都  4.5 
 3 ggt5900 食べ飲み放題×中華ビストロ NOZOMI（のぞみ）               東京都 NA   
 4 g181340 博多餃子軒 八王子店 タピオカ店 Bull Pulu（ブルプル）併設 東京都 NA   
 5 ggww100 まさ屋 渋谷店                                            東京都 NA   
 6 gdzk500 完全個室 上海レストラン 檸檬 霞ヶ関ビル内店              東京都 NA   
 7 ga2g202 鶏そば きらり                                            東京都 NA   
 8 gg9m100 宴会個室×餃子酒場 北京飯店 秋葉原本店                    東京都  3.33
 9 gdvk200 中国料理 宝龍                                            東京都  2.5 
10 gggb200 中国料理 天安門                                          東京都 NA   
# ℹ 6,282 more rows

# dplyr::select()を使う方法
# select(df, ID, Name, Pref, Score)でもOK
df |>
  select(ID, Name, Pref, Score)

# A tibble: 6,292 × 4
   ID      Name                                                     Pref   Score
   <chr>   <chr>                                                    <chr>  <dbl>
 1 e539604 居酒屋 龍記 京橋店                                       東京都 NA   
 2 gfeb600 本格上海料理 新錦江 上野御徒町本店                       東京都  4.5 
 3 ggt5900 食べ飲み放題×中華ビストロ NOZOMI（のぞみ）               東京都 NA   
 4 g181340 博多餃子軒 八王子店 タピオカ店 Bull Pulu（ブルプル）併設 東京都 NA   
 5 ggww100 まさ屋 渋谷店                                            東京都 NA   
 6 gdzk500 完全個室 上海レストラン 檸檬 霞ヶ関ビル内店              東京都 NA   
 7 ga2g202 鶏そば きらり                                            東京都 NA   
 8 gg9m100 宴会個室×餃子酒場 北京飯店 秋葉原本店                    東京都  3.33
 9 gdvk200 中国料理 宝龍                                            東京都  2.5 
10 gggb200 中国料理 天安門                                          東京都 NA   
# ℹ 6,282 more rows

　どれも結果は同じですが、select()関数を使った方がより読みやすいコードになっているでしょう。むろん、select()関数を使わない方がスッキリする方も知るかも知れません。実際、自分でパッケージなどを作成する際はselect()を使わない場合が多いです。ただし、一般的な分析の流れではselect()の方がコードも意味も明確となり、パイプ演算子でつなぐのも容易です。

　select()関数の使い方は非常に簡単です。第一引数はデータフレームですが、パイプ演算子を使う場合は省略可能です。第二引数以降の引数はデータフレームの変数名です。つまり、ここには残す変数名のみを書くだけで十分です。

　また、select()関数を使って列の順番を変えることもできます。たとえば、ID、Pref、Name、Scoreの順で列を残すなら、この順番で引数を書くだけです。

df |>
  select(ID, Pref, Name)

# A tibble: 6,292 × 3
   ID      Pref   Name                                                    
   <chr>   <chr>  <chr>                                                   
 1 e539604 東京都 居酒屋 龍記 京橋店                                      
 2 gfeb600 東京都 本格上海料理 新錦江 上野御徒町本店                      
 3 ggt5900 東京都 食べ飲み放題×中華ビストロ NOZOMI（のぞみ）              
 4 g181340 東京都 博多餃子軒 八王子店 タピオカ店 Bull Pulu（ブルプル）併設
 5 ggww100 東京都 まさ屋 渋谷店                                           
 6 gdzk500 東京都 完全個室 上海レストラン 檸檬 霞ヶ関ビル内店             
 7 ga2g202 東京都 鶏そば きらり                                           
 8 gg9m100 東京都 宴会個室×餃子酒場 北京飯店 秋葉原本店                   
 9 gdvk200 東京都 中国料理 宝龍                                           
10 gggb200 東京都 中国料理 天安門                                         
# ℹ 6,282 more rows

13.3.2 特定の列を抽出し、列名を変更する

　また、特定の列を残す際、変数名を変更することも可能です。今回もID、Name、Pref、Scoreのみを残しますが、Pref列はPrefectureに変えてみましょう。

df |>
  select(ID, Name, Prefecture = Pref, Score)

# A tibble: 6,292 × 4
   ID      Name                                                Prefecture Score
   <chr>   <chr>                                               <chr>      <dbl>
 1 e539604 居酒屋 龍記 京橋店                                  東京都     NA   
 2 gfeb600 本格上海料理 新錦江 上野御徒町本店                  東京都      4.5 
 3 ggt5900 食べ飲み放題×中華ビストロ NOZOMI（のぞみ）          東京都     NA   
 4 g181340 博多餃子軒 八王子店 タピオカ店 Bull Pulu（ブルプル… 東京都     NA   
 5 ggww100 まさ屋 渋谷店                                       東京都     NA   
 6 gdzk500 完全個室 上海レストラン 檸檬 霞ヶ関ビル内店         東京都     NA   
 7 ga2g202 鶏そば きらり                                       東京都     NA   
 8 gg9m100 宴会個室×餃子酒場 北京飯店 秋葉原本店               東京都      3.33
 9 gdvk200 中国料理 宝龍                                       東京都      2.5 
10 gggb200 中国料理 天安門                                     東京都     NA   
# ℹ 6,282 more rows
…
names(df)

 [1] "ID"        "Name"      "Pref"      "Zipcode"   "Latitude"  "Longitude"
 [7] "Line"      "Station"   "Walk"      "Bus"       "Car"       "Budget"   
[13] "ScoreN"    "Score"    

　察しの良い読者は気づいたかも知れませんが、names(データフレーム名)の結果はベクトルであり、上書きも可能です。つまり、names(df)の3番目と9番目の要素を"Prefecture"と"Distance"に上書きすることができるということです。

# dplyrを使わずに列名を変更する方法
names(df)[c(3, 9)] <- c("Prefecture", "Distance")

# dfの中身を出力
df

# A tibble: 6,292 × 14
   ID      Name     Prefecture Zipcode Latitude Longitude Line  Station Distance
   <chr>   <chr>    <chr>        <dbl>    <dbl>     <dbl> <chr> <chr>      <dbl>
 1 e539604 居酒屋 … 東京都     1040031     35.7      140. 地下… 銀座一…        3
 2 gfeb600 本格上…  東京都     1100005     35.7      140. 地下… 仲御徒…        1
 3 ggt5900 食べ飲…  東京都     1250041     35.8      140. ＪＲ… 金町駅         2
 4 g181340 博多餃…  東京都     1920904     35.7      139. ＪＲ  八王子…        1
 5 ggww100 まさ屋 … 東京都     1500042     35.7      140. 地下… 渋谷駅         7
 6 gdzk500 完全個…  東京都     1000013     35.7      140. 地下… 虎ノ門…        3
 7 ga2g202 鶏そば … 東京都     1760006     35.7      140. 西武… 江古田…        2
 8 gg9m100 宴会個…  東京都     1010021     35.7      140. ＪＲ  秋葉原…        4
 9 gdvk200 中国料…  東京都     1000006     35.7      140. ＪＲ  有楽町…        1
10 gggb200 中国料…  東京都     1140002     35.8      140. 地下… 王子駅         2
# ℹ 6,282 more rows
# ℹ 5 more variables: Bus <dbl>, Car <dbl>, Budget <dbl>, ScoreN <dbl>,
#   Score <dbl>
…
# dfのPrefectureをPrefに、DistanceをWalkに変更し、上書きする
df <- df |>
  rename(Pref = Prefecture, Walk = Distance)

　これで終わりです。実はselect()関数と使い方がほぼ同じです。ただし、残す変数名を指定する必要がなく、名前を変更する変数名と新しい変数名を入れるだけです。変数が少ないデータならselect()でもあまり不便は感じないかも知れませんが、変数が多くなるとrename()関数は非常に便利です。

13.3.3 特定の列を除外する

　逆に、一部の変数をデータフレームから除去したい場合もあるでしょう。たとえば、緯度 (Latitude)と経度 (Longitude)はラーメン屋の情報としては不要かもしれません。この2つの変数を除外するためにはどうすれば良いでしょうか。まず考えられるのは、この2つの変数を除いた変数を指定・抽出する方法です。

df |>
  select(ID, Name, Pref, Zipcode, 
         Line, Station, Walk, Bus, Car, Budget, ScoreN, Score)

# A tibble: 6,292 × 12
   ID    Name  Pref  Zipcode Line  Station  Walk   Bus   Car Budget ScoreN Score
   <chr> <chr> <chr>   <dbl> <chr> <chr>   <dbl> <dbl> <dbl>  <dbl>  <dbl> <dbl>
 1 e539… 居酒… 東京… 1040031 地下… 銀座一…     3    NA    NA   3000      0 NA   
 2 gfeb… 本格… 東京… 1100005 地下… 仲御徒…     1    NA    NA   2000      2  4.5 
 3 ggt5… 食べ… 東京… 1250041 ＪＲ… 金町駅      2    NA    NA   2980      0 NA   
 4 g181… 博多… 東京… 1920904 ＪＲ  八王子…     1    NA    NA   2000      0 NA   
 5 ggww… まさ… 東京… 1500042 地下… 渋谷駅      7    NA    NA    380      0 NA   
 6 gdzk… 完全… 東京… 1000013 地下… 虎ノ門…     3    NA    NA   2980      0 NA   
 7 ga2g… 鶏そ… 東京… 1760006 西武… 江古田…     2    NA    NA    850      0 NA   
 8 gg9m… 宴会… 東京… 1010021 ＪＲ  秋葉原…     4    NA    NA   2000      3  3.33
 9 gdvk… 中国… 東京… 1000006 ＪＲ  有楽町…     1    NA    NA   1000      2  2.5 
10 gggb… 中国… 東京… 1140002 地下… 王子駅      2    NA    NA   2000      0 NA   
# ℹ 6,282 more rows

　かなり長いコードになりましたね。しかし、もっと簡単な方法があります。それは-を使う方法です。

df |>
  select(-Latitude, -Longitude) # select(-c(Latitude, Longitude))

# A tibble: 6,292 × 12
   ID    Name  Pref  Zipcode Line  Station  Walk   Bus   Car Budget ScoreN Score
   <chr> <chr> <chr>   <dbl> <chr> <chr>   <dbl> <dbl> <dbl>  <dbl>  <dbl> <dbl>
 1 e539… 居酒… 東京… 1040031 地下… 銀座一…     3    NA    NA   3000      0 NA   
 2 gfeb… 本格… 東京… 1100005 地下… 仲御徒…     1    NA    NA   2000      2  4.5 
 3 ggt5… 食べ… 東京… 1250041 ＪＲ… 金町駅      2    NA    NA   2980      0 NA   
 4 g181… 博多… 東京… 1920904 ＪＲ  八王子…     1    NA    NA   2000      0 NA   
 5 ggww… まさ… 東京… 1500042 地下… 渋谷駅      7    NA    NA    380      0 NA   
 6 gdzk… 完全… 東京… 1000013 地下… 虎ノ門…     3    NA    NA   2980      0 NA   
 7 ga2g… 鶏そ… 東京… 1760006 西武… 江古田…     2    NA    NA    850      0 NA   
 8 gg9m… 宴会… 東京… 1010021 ＪＲ  秋葉原…     4    NA    NA   2000      3  3.33
 9 gdvk… 中国… 東京… 1000006 ＪＲ  有楽町…     1    NA    NA   1000      2  2.5 
10 gggb… 中国… 東京… 1140002 地下… 王子駅      2    NA    NA   2000      0 NA   
# ℹ 6,282 more rows
…
　ここで便利な演算子が:です。これまで、xからyまでの公差1の等差数列を作成する際にx:yを使って来ましたが、これに非常に似ています。データフレームの「x列からy列まで」の表記もselect()関数内では:と書くことができます。したがって、上記のコードは以下のように短縮化可能です。

df |>
  select(ID:Zipcode, Line:Score)

　「dfのIDからZipcodeまで、そしてLineからScoreまでの列を選択する」という意味です。非常に便利な演算子ですので、-と合わせて覚えておきましょう。

13.3.5 一部の列の順番だけを変える

　ある列の位置を替えたいとします。たとえば、ScoreとScoreNをそれぞれ1列目、2列目にしたい場合、どうすれば良いでしょうか。これまで勉強したことを考えると、以下のようなコードで問題ないでしょう。

df |>
  select(Score, ScoreN, ID:Budget)

# A tibble: 6,292 × 14
   Score ScoreN ID    Name  Pref  Zipcode Latitude Longitude Line  Station  Walk
   <dbl>  <dbl> <chr> <chr> <chr>   <dbl>    <dbl>     <dbl> <chr> <chr>   <dbl>
 1 NA         0 e539… 居酒… 東京… 1040031     35.7      140. 地下… 銀座一…     3
 2  4.5       2 gfeb… 本格… 東京… 1100005     35.7      140. 地下… 仲御徒…     1
 3 NA         0 ggt5… 食べ… 東京… 1250041     35.8      140. ＪＲ… 金町駅      2
 4 NA         0 g181… 博多… 東京… 1920904     35.7      139. ＪＲ  八王子…     1
 5 NA         0 ggww… まさ… 東京… 1500042     35.7      140. 地下… 渋谷駅      7
 6 NA         0 gdzk… 完全… 東京… 1000013     35.7      140. 地下… 虎ノ門…     3
 7 NA         0 ga2g… 鶏そ… 東京… 1760006     35.7      140. 西武… 江古田…     2
 8  3.33      3 gg9m… 宴会… 東京… 1010021     35.7      140. ＪＲ  秋葉原…     4
 9  2.5       2 gdvk… 中国… 東京… 1000006     35.7      140. ＪＲ  有楽町…     1
10 NA         0 gggb… 中国… 東京… 1140002     35.8      140. 地下… 王子駅      2
# ℹ 6,282 more rows
# ℹ 3 more variables: Bus <dbl>, Car <dbl>, Budget <dbl>

　しかし、{dplyr}にはrelocate()というより便利な専用関数を提供しています。relocate()には変数名を指定するだけですが、ここで指定した変数がデータフレームの最初列の方に移動します。

df |>
  relocate(Score, ScoreN)

# A tibble: 6,292 × 14
   Score ScoreN ID    Name  Pref  Zipcode Latitude Longitude Line  Station  Walk
   <dbl>  <dbl> <chr> <chr> <chr>   <dbl>    <dbl>     <dbl> <chr> <chr>   <dbl>
 1 NA         0 e539… 居酒… 東京… 1040031     35.7      140. 地下… 銀座一…     3
 2  4.5       2 gfeb… 本格… 東京… 1100005     35.7      140. 地下… 仲御徒…     1
 3 NA         0 ggt5… 食べ… 東京… 1250041     35.8      140. ＪＲ… 金町駅      2
 4 NA         0 g181… 博多… 東京… 1920904     35.7      139. ＪＲ  八王子…     1
 5 NA         0 ggww… まさ… 東京… 1500042     35.7      140. 地下… 渋谷駅      7
 6 NA         0 gdzk… 完全… 東京… 1000013     35.7      140. 地下… 虎ノ門…     3
 7 NA         0 ga2g… 鶏そ… 東京… 1760006     35.7      140. 西武… 江古田…     2
 8  3.33      3 gg9m… 宴会… 東京… 1010021     35.7      140. ＪＲ  秋葉原…     4
 9  2.5       2 gdvk… 中国… 東京… 1000006     35.7      140. ＪＲ  有楽町…     1
10 NA         0 gggb… 中国… 東京… 1140002     35.8      140. 地下… 王子駅      2
# ℹ 6,282 more rows
# ℹ 3 more variables: Bus <dbl>, Car <dbl>, Budget <dbl>

　relocate()を使うとID:Budgetが省略可能となり、より短いコードになります。もう一つの例は、最初に持ってくるのではなく、「ある変数の前」または「ある変数の後」に移動させるケースです。これもrelocate()で可能ですが、もう一つの引数が必要です。PrefとZipcdoeの順番を変えるなら、まずは以下のような方法が考えられます。

df |>
  select(ID:Name, Zipcode, Pref, Latitude:Score)

# A tibble: 6,292 × 14
   ID     Name  Zipcode Pref  Latitude Longitude Line  Station  Walk   Bus   Car
   <chr>  <chr>   <dbl> <chr>    <dbl>     <dbl> <chr> <chr>   <dbl> <dbl> <dbl>
 1 e5396… 居酒… 1040031 東京…     35.7      140. 地下… 銀座一…     3    NA    NA
 2 gfeb6… 本格… 1100005 東京…     35.7      140. 地下… 仲御徒…     1    NA    NA
 3 ggt59… 食べ… 1250041 東京…     35.8      140. ＪＲ… 金町駅      2    NA    NA
 4 g1813… 博多… 1920904 東京…     35.7      139. ＪＲ  八王子…     1    NA    NA
 5 ggww1… まさ… 1500042 東京…     35.7      140. 地下… 渋谷駅      7    NA    NA
 6 gdzk5… 完全… 1000013 東京…     35.7      140. 地下… 虎ノ門…     3    NA    NA
 7 ga2g2… 鶏そ… 1760006 東京…     35.7      140. 西武… 江古田…     2    NA    NA
 8 gg9m1… 宴会… 1010021 東京…     35.7      140. ＪＲ  秋葉原…     4    NA    NA
 9 gdvk2… 中国… 1000006 東京…     35.7      140. ＪＲ  有楽町…     1    NA    NA
10 gggb2… 中国… 1140002 東京…     35.8      140. 地下… 王子駅      2    NA    NA
# ℹ 6,282 more rows
# ℹ 3 more variables: Budget <dbl>, ScoreN <dbl>, Score <dbl>

　これをrelocate()で書き換えるなら、.afterまたは.before引数が必要になります。relocate(変数名1, .after = 変数名2)は「変数1を変数2の直後に移動させる」 ことを意味します。

df |>
  relocate(Pref, .after = Zipcode)

# A tibble: 6,292 × 14
   ID     Name  Zipcode Pref  Latitude Longitude Line  Station  Walk   Bus   Car
   <chr>  <chr>   <dbl> <chr>    <dbl>     <dbl> <chr> <chr>   <dbl> <dbl> <dbl>
 1 e5396… 居酒… 1040031 東京…     35.7      140. 地下… 銀座一…     3    NA    NA
 2 gfeb6… 本格… 1100005 東京…     35.7      140. 地下… 仲御徒…     1    NA    NA
 3 ggt59… 食べ… 1250041 東京…     35.8      140. ＪＲ… 金町駅      2    NA    NA
 4 g1813… 博多… 1920904 東京…     35.7      139. ＪＲ  八王子…     1    NA    NA
 5 ggww1… まさ… 1500042 東京…     35.7      140. 地下… 渋谷駅      7    NA    NA
 6 gdzk5… 完全… 1000013 東京…     35.7      140. 地下… 虎ノ門…     3    NA    NA
 7 ga2g2… 鶏そ… 1760006 東京…     35.7      140. 西武… 江古田…     2    NA    NA
 8 gg9m1… 宴会… 1010021 東京…     35.7      140. ＪＲ  秋葉原…     4    NA    NA
 9 gdvk2… 中国… 1000006 東京…     35.7      140. ＪＲ  有楽町…     1    NA    NA
10 gggb2… 中国… 1140002 東京…     35.8      140. 地下… 王子駅      2    NA    NA
# ℹ 6,282 more rows
# ℹ 3 more variables: Budget <dbl>, ScoreN <dbl>, Score <dbl>
…
13.3.6 select()の便利な機能

　select()関数は他にも便利な機能がいくつかあります。ここではいくつの機能を紹介しますが、より詳しい内容は?dplyr::selectを参照してください。

starts_with()とends_with()、contains()、num_range(): 特定の文字を含む変数を選択する

　まずは、特定の文字を含む変数名を指定する方法です。starts_with("X")、ends_with("X")、contains("X")は変数名が"X"で始まるか、"X"で終わるか、"X"を含むかを判断し、条件に合う変数名を返す関数です。実際の例を見ましょう。

# ID、Nameに続いて、Scoreで始まる変数名を抽出
df |>
  select(ID, Name, starts_with("Score"))

# A tibble: 6,292 × 4
   ID      Name                                                     ScoreN Score
   <chr>   <chr>                                                     <dbl> <dbl>
 1 e539604 居酒屋 龍記 京橋店                                            0 NA   
 2 gfeb600 本格上海料理 新錦江 上野御徒町本店                            2  4.5 
 3 ggt5900 食べ飲み放題×中華ビストロ NOZOMI（のぞみ）                    0 NA   
 4 g181340 博多餃子軒 八王子店 タピオカ店 Bull Pulu（ブルプル）併設      0 NA   
 5 ggww100 まさ屋 渋谷店                                                 0 NA   
 6 gdzk500 完全個室 上海レストラン 檸檬 霞ヶ関ビル内店                   0 NA   
 7 ga2g202 鶏そば きらり                                                 0 NA   
 8 gg9m100 宴会個室×餃子酒場 北京飯店 秋葉原本店                         3  3.33
 9 gdvk200 中国料理 宝龍                                                 2  2.5 
10 gggb200 中国料理 天安門                                               0 NA   
# ℹ 6,282 more rows

# eで終わる変数名を除去
df |>
  select(-ends_with("e")) # !ends_with("e")も可能

# A tibble: 6,292 × 8
   ID      Pref   Station       Walk   Bus   Car Budget ScoreN
   <chr>   <chr>  <chr>        <dbl> <dbl> <dbl>  <dbl>  <dbl>
 1 e539604 東京都 銀座一丁目駅     3    NA    NA   3000      0
 2 gfeb600 東京都 仲御徒町駅       1    NA    NA   2000      2
 3 ggt5900 東京都 金町駅           2    NA    NA   2980      0
 4 g181340 東京都 八王子駅         1    NA    NA   2000      0
 5 ggww100 東京都 渋谷駅           7    NA    NA    380      0
 6 gdzk500 東京都 虎ノ門駅         3    NA    NA   2980      0
 7 ga2g202 東京都 江古田駅         2    NA    NA    850      0
 8 gg9m100 東京都 秋葉原駅         4    NA    NA   2000      3
 9 gdvk200 東京都 有楽町駅         1    NA    NA   1000      2
10 gggb200 東京都 王子駅           2    NA    NA   2000      0
# ℹ 6,282 more rows

# reを含む変数名を抽出するが、ScoreNは除去する
df |>
  select(contains("re"), -ScoreN)

# A tibble: 6,292 × 2
   Pref   Score
   <chr>  <dbl>
 1 東京都 NA   
 2 東京都  4.5 
 3 東京都 NA   
 4 東京都 NA   
 5 東京都 NA   
 6 東京都 NA   
 7 東京都 NA   
 8 東京都  3.33
 9 東京都  2.5 
10 東京都 NA   
# ℹ 6,282 more rows
…
　any_of()の方がより使いやすいと思う方も多いでしょうが、必ずしもそうとは限りません。たとえば、Name_Vecに誤字などが含まれる場合、any_of()だと誤字が含まれている変数は取り出しません。この場合はむしろちゃんとエラーを表示してくれた方が嬉しいですね。

last_col(): 最後の列を選択する

　普段あまり使わない機能ですが、最後の列を選択するlast_col()という関数もあります。

# IDと最後の列のみを抽出
df |>
  select(ID, last_col(0))

# A tibble: 6,292 × 2
   ID      Score
   <chr>   <dbl>
 1 e539604 NA   
 2 gfeb600  4.5 
 3 ggt5900 NA   
 4 g181340 NA   
 5 ggww100 NA   
 6 gdzk500 NA   
 7 ga2g202 NA   
 8 gg9m100  3.33
 9 gdvk200  2.5 
10 gggb200 NA   
# ℹ 6,282 more rows

　最後からk番目の列を指定することも可能です。最後の列の番号が0であり、その手前の列は1となります。つまり、last_col()の中には「最後から何番目の列か」を指定すれば良いです。最後の列は最後の列そのままなので0です。

# IDと最後から2列目を抽出
df |>
  select(ID, last_col(1))

# A tibble: 6,292 × 2
   ID      ScoreN
   <chr>    <dbl>
 1 e539604      0
 2 gfeb600      2
 3 ggt5900      0
 4 g181340      0
 5 ggww100      0
 6 gdzk500      0
 7 ga2g202      0
 8 gg9m100      3
 9 gdvk200      2
10 gggb200      0
# ℹ 6,282 more rows

　このlast_col()の引数を指定しないと、それは最後の列を意味します。つまり、last_col()とlast_col(0)は同じです。これを利用すれば、「ある変数の最後の列へ移動させる」こともできます。たとえば、IDを最後の列に移動させたい場合、relocate(ID, .after = last_col())のように書きます。

where(): データ型から変数を選択する

　最後に、「numeric型の列のみ抽出したい」、「character型の列だけほしい」場合に便利なwhere()関数を紹介します。where()の中に入る引数は一つだけであり、データ型を判定する関数名が入ります。たとえば、numeric型か否かを判断する関数はis.numeric()です。dfからnumeric型の変数のみを抽出したい場合は以下のように書きます。ただし、where()の中の関数は()を省略します。

# numeric型の列を抽出する
df |>
  select(where(is.numeric))

# A tibble: 6,292 × 9
   Zipcode Latitude Longitude  Walk   Bus   Car Budget ScoreN Score
     <dbl>    <dbl>     <dbl> <dbl> <dbl> <dbl>  <dbl>  <dbl> <dbl>
 1 1040031     35.7      140.     3    NA    NA   3000      0 NA   
 2 1100005     35.7      140.     1    NA    NA   2000      2  4.5 
 3 1250041     35.8      140.     2    NA    NA   2980      0 NA   
 4 1920904     35.7      139.     1    NA    NA   2000      0 NA   
 5 1500042     35.7      140.     7    NA    NA    380      0 NA   
 6 1000013     35.7      140.     3    NA    NA   2980      0 NA   
 7 1760006     35.7      140.     2    NA    NA    850      0 NA   
 8 1010021     35.7      140.     4    NA    NA   2000      3  3.33
 9 1000006     35.7      140.     1    NA    NA   1000      2  2.5 
10 1140002     35.8      140.     2    NA    NA   2000      0 NA   
# ℹ 6,282 more rows
…
