26. 反復処理 | 私たちのR: ベストプラクティスの探究
…
Split_Data <- split(Country_df, Country_df$Continent)

サンプルが分割されたSplit_Dataのデータ構造はリスト型です。

class(Split_Data)

## [1] "list"

中身を見るとリストの各要素としてtibble（データフレーム）が格納されています。リストの中にはあらゆるデータ型、データ構造を入れることができることが分かります。

Split_Data

## $Africa
## # A tibble: 54 × 18
##    Country   Population   Area    GDP    PPP GDP_per_capita PPP_per_capita    G7
##    <chr>          <dbl>  <dbl>  <dbl>  <dbl>          <dbl>          <dbl> <dbl>
##  1 Algeria     43851044 2.38e6 1.70e5 4.97e5          3876.         11324.     0
##  2 Angola      32866272 1.25e6 9.46e4 2.19e5          2879.          6649.     0
##  3 Benin       12123200 1.13e5 1.44e4 3.72e4          1187.          3067.     0
##  4 Botswana     2351627 5.67e5 1.83e4 4.07e4          7799.         17311.     0
##  5 Burkina …   20903273 2.74e5 1.57e4 3.76e4           753.          1800.     0
##  6 Burundi     11890784 2.57e4 3.01e3 8.72e3           253.           733.     0
##  7 Cabo Ver…     555987 4.03e3 1.98e3 3.84e3          3565.          6913.     0
##  8 Cameroon    26545863 4.73e5 3.88e4 9.31e4          1460.          3506.     0
##  9 Central …    4829767 6.23e5 2.22e3 4.46e3           460.           924.     0
## 10 Chad        16425864 1.26e6 1.13e4 2.51e4           689.          1525.     0
## # … with 44 more rows, and 10 more variables: G20 <dbl>, OECD <dbl>,
## #   HDI_2018 <dbl>, Polity_Score <dbl>, Polity_Type <chr>, FH_PR <dbl>,
## #   FH_CL <dbl>, FH_Total <dbl>, FH_Status <chr>, Continent <chr>
## 
## $America
## # A tibble: 36 × 18
##    Country   Population   Area    GDP    PPP GDP_per_capita PPP_per_capita    G7
##    <chr>          <dbl>  <dbl>  <dbl>  <dbl>          <dbl>          <dbl> <dbl>
##  1 Antigua …      97929 4.4 e2 1.73e3 2.08e3         17643.         21267.     0
##  2 Argentina   45195774 2.74e6 4.50e5 1.04e6          9949.         22938.     0
##  3 Bahamas       393244 1.00e4 1.28e4 1.40e4         32618.         35662.     0
##  4 Barbados      287375 4.3 e2 5.21e3 4.62e3         18126.         16066.     0
##  5 Belize        397628 2.28e4 1.88e3 2.82e3          4727.          7091.     0
##  6 Bolivia     11673021 1.08e6 4.09e4 1.01e5          3503.          8623.     0
##  7 Brazil     212559417 8.36e6 1.84e6 3.13e6          8655.         14734.     0
##  8 Canada      37742154 9.09e6 1.74e6 1.85e6         46008.         49088.     1
##  9 Chile       19116201 7.44e5 2.82e5 4.64e5         14769.         24262.     0
## 10 Colombia    50882891 1.11e6 3.24e5 7.37e5          6364.         14475.     0
## # … with 26 more rows, and 10 more variables: G20 <dbl>, OECD <dbl>,
## #   HDI_2018 <dbl>, Polity_Score <dbl>, Polity_Type <chr>, FH_PR <dbl>,
## #   FH_CL <dbl>, FH_Total <dbl>, FH_Status <chr>, Continent <chr>
## 
## $Asia
## # A tibble: 42 × 18
##    Country   Population   Area    GDP    PPP GDP_per_capita PPP_per_capita    G7
##    <chr>          <dbl>  <dbl>  <dbl>  <dbl>          <dbl>          <dbl> <dbl>
##  1 Afghanis…   38928346 6.53e5 1.91e4 8.27e4           491.          2125.     0
##  2 Bahrain      1701575 7.6 e2 3.86e4 7.42e4         22670.         43624.     0
##  3 Banglade…  164689383 1.30e5 3.03e5 7.34e5          1837.          4458.     0
##  4 Bhutan        771608 3.81e4 2.45e3 8.77e3          3171.         11363.     0
##  5 Brunei        437479 5.27e3 1.35e4 2.65e4         30789.         60656.     0
##  6 Burma       54409800 6.53e5 7.61e4 2.68e5          1398.          4932.     0
##  7 Cambodia    16718965 1.77e5 2.71e4 6.93e4          1620.          4142.     0
##  8 China     1447470092 9.39e6 1.48e7 2.20e7         10199.         15177.     0
##  9 India     1380004385 2.97e6 2.88e6 9.06e6          2083.          6564.     0
## 10 Indonesia  273523615 1.81e6 1.12e6 3.12e6          4092.         11397.     0
## # … with 32 more rows, and 10 more variables: G20 <dbl>, OECD <dbl>,
## #   HDI_2018 <dbl>, Polity_Score <dbl>, Polity_Type <chr>, FH_PR <dbl>,
## #   FH_CL <dbl>, FH_Total <dbl>, FH_Status <chr>, Continent <chr>
## 
## $Europe
## # A tibble: 50 × 18
##    Country  Population   Area    GDP     PPP GDP_per_capita PPP_per_capita    G7
##    <chr>         <dbl>  <dbl>  <dbl>   <dbl>          <dbl>          <dbl> <dbl>
##  1 Albania     2877797  27400 1.53e4  39658.          5309.         13781.     0
##  2 Andorra       77265    470 3.15e3     NA          40821.            NA      0
##  3 Armenia     2963243  28470 1.37e4  38446.          4614.         12974.     0
##  4 Austria     9006398  82409 4.46e5 502771.         49555.         55824.     0
##  5 Azerbai…   10139177  82658 4.80e4 144556.          4739.         14257.     0
##  6 Belarus     9449323 202910 6.31e4 183461.          6676.         19415.     0
##  7 Belgium    11589623  30280 5.30e5 597433.         45697.         51549.     0
##  8 Bosnia …    3280819  51000 2.00e4  49733.          6111.         15159.     0
##  9 Bulgaria    6948445 108560 6.79e4 156693.          9776.         22551.     0
## 10 Croatia     4105267  55960 6.04e4 114932.         14717.         27996.     0
## # … with 40 more rows, and 10 more variables: G20 <dbl>, OECD <dbl>,
## #   HDI_2018 <dbl>, Polity_Score <dbl>, Polity_Type <chr>, FH_PR <dbl>,
## #   FH_CL <dbl>, FH_Total <dbl>, FH_Status <chr>, Continent <chr>
## 
## $Oceania
…
ContinentがOceaniaの行のdata列にオセアニアのみのデータが格納されていることが分かります。このようなデータ構造を入れ子型データ（nested data）と呼びます。この入れ子型データはunnest()関数を使って解除することも可能です。unnest()関数を使う際はどの列を解除するかを指定する必要があり、今回はdata列となります。

# 入れ子型データの解除
Nested_Data %>%
  unnest(data)

## # A tibble: 186 × 18
## # Groups:   Continent [5]
##    Continent Country     Population    Area       GDP       PPP GDP_per_capita
##    <chr>     <chr>            <dbl>   <dbl>     <dbl>     <dbl>          <dbl>
##  1 Asia      Afghanistan   38928346  652860    19101.    82737.           491.
##  2 Asia      Bahrain        1701575     760    38574.    74230.         22670.
##  3 Asia      Bangladesh   164689383  130170   302571.   734108.          1837.
##  4 Asia      Bhutan          771608   38117     2447.     8767.          3171.
##  5 Asia      Brunei          437479    5270    13469.    26536.         30789.
##  6 Asia      Burma         54409800  653290    76086.   268327.          1398.
##  7 Asia      Cambodia      16718965  176520    27089.    69253.          1620.
##  8 Asia      China       1447470092 9389291 14762792. 21967628.         10199.
##  9 Asia      India       1380004385 2973190  2875142.  9058692.          2083.
## 10 Asia      Indonesia    273523615 1811570  1119191.  3117334.          4092.
## # … with 176 more rows, and 11 more variables: PPP_per_capita <dbl>, G7 <dbl>,
## #   G20 <dbl>, OECD <dbl>, HDI_2018 <dbl>, Polity_Score <dbl>,
## #   Polity_Type <chr>, FH_PR <dbl>, FH_CL <dbl>, FH_Total <dbl>,
## #   FH_Status <chr>
…
続いて、case_when()関数を使用し、Populationの値を基準にケースがどの範囲内に属するかを表す変数Groupを作成します。

Country_df2 <- Country_df2 %>%
  mutate(Group = case_when(Population <  10000000  ~ "1千万未満",
                           Population <  50000000  ~ "1千万以上5千万未満",
                           Population <  100000000 ~ "5千万以上1億未満",
                           Population >= 100000000 ~ "1億以上"))

中身を確認してみましょう。

Country_df2

## # A tibble: 186 × 4
##    PPP_per_capita FH_Total Population Group             
##             <dbl>    <dbl>      <dbl> <chr>             
##  1          2125.       27   38928346 1千万以上5千万未満
##  2         13781.       67    2877797 1千万未満         
##  3         11324.       34   43851044 1千万以上5千万未満
##  4            NA        94      77265 1千万未満         
##  5          6649.       32   32866272 1千万以上5千万未満
##  6         21267.       85      97929 1千万未満         
##  7         22938.       85   45195774 1千万以上5千万未満
##  8         12974.       53    2963243 1千万未満         
##  9         50001.       97   25499884 1千万以上5千万未満
## 10         55824.       93    9006398 1千万未満         
## # … with 176 more rows
…
入れ子構造になっているのは確認できましたが、ちゃんとフィルタリングされているかどうかも確認してみましょう。たとえば、Range_df$Subset[[9]]だとFH_Totalが80以上の国に絞られていると考えられます。18列の表ですからCountryとFH_Total列のみを確認してみましょう。

Range_df$Subset[[9]] %>%
  select(Country, FH_Total)

## # A tibble: 61 × 2
##    Country             FH_Total
##    <chr>                  <dbl>
##  1 Andorra                   94
##  2 Antigua and Barbuda       85
##  3 Argentina                 85
##  4 Australia                 97
##  5 Austria                   93
##  6 Bahamas                   91
##  7 Barbados                  95
##  8 Belgium                   96
##  9 Belize                    86
## 10 Bulgaria                  80
## # … with 51 more rows
…
