私たちのR - 30 スクレイピング
…
pfi_df <- df_tbl[[1]] |> 
  rename("Name"     = "国・地域",
         "Year2023" = "2023年[10]",
         "Year2022" = "2022年[11]",
         "Year2021" = "2021年[12]",
         "Year2020" = "2020年[13]",
         "Year2019" = "2019年[14]") |> 
  mutate(across(Year2023:Year2019, ~str_replace(.x, "\\(([0-9]+)\\)", "")),
         across(Year2023:Year2019, as.numeric))

pfi_df

# A tibble: 180 × 6
   Name         Year2023 Year2022 Year2021 Year2020 Year2019
   <chr>           <dbl>    <dbl>    <dbl>    <dbl>    <dbl>
 1 ノルウェー       95.2     92.6     93.3     92.2     92.2
 2 アイルランド     89.9     88.3     88.1     87.4     85  
 3 デンマーク       89.5     90.3     91.4     91.9     90.1
 4 スウェーデン     88.2     88.8     92.8     90.8     91.7
 5 フィンランド     87.9     88.4     93.0     92.1     92.1
 6 オランダ         87       77.9     90.3     90.0     91.4
 7 リトアニア       86.8     84.1     80.0     78.8     77.9
 8 エストニア       85.3     88.8     84.8     87.4     87.7
 9 ポルトガル       84.6     87.1     89.9     88.2     87.4
10 東ティモール     84.5     81.9     70.9     70.1     70.1
# ℹ 170 more rows
…
$J2
# A tibble: 22 × 12
   ``     順位 クラブ名         勝点 試合数    勝    分    負  得点  失点 得失点
   <lgl> <int> <chr>           <int>  <int> <int> <int> <int> <int> <int>  <int>
 1 NA        1 ＦＣ町田ゼルビ…    42     19    13     3     3    28    10     18
 2 NA        2 大分トリニータ…    34     19    10     4     5    25    24      1
 3 NA        3 東京ヴェルディ…    33     19    10     3     6    24    11     13
 4 NA        4 Ｖ・ファーレン…    32     19     9     5     5    27    17     10
 5 NA        5 ヴァンフォーレ…    32     19    10     2     7    25    21      4
 6 NA        6 ジュビロ磐田ジ…    30     19     8     6     5    31    22      9
 7 NA        7 ベガルタ仙台ベ…    30     19     8     6     5    24    18      6
 8 NA        8 ファジアーノ岡…    29     19     6    11     2    25    17      8
 9 NA        9 ザスパクサツ群…    29     19     8     5     6    22    22      0
10 NA       10 清水エスパルス…    28     19     7     7     5    38    16     22
# ℹ 12 more rows
# ℹ 1 more variable: 直近5試合 <lgl>
…
j_df <- bind_rows(tbl_list, .id = "League")

New names:
New names:
New names:
• `` -> `...1`

j_df

# A tibble: 60 × 13
   League ...1   順位 クラブ名  勝点 試合数    勝    分    負  得点  失点 得失点
   <chr>  <lgl> <int> <chr>    <int>  <int> <int> <int> <int> <int> <int>  <int>
 1 J1     NA        1 ヴィッ…     33     15    10     3     2    32    11     21
 2 J1     NA        2 横浜Ｆ…     33     16    10     3     3    33    17     16
 3 J1     NA        3 名古屋…     32     16     9     5     2    23    13     10
 4 J1     NA        4 サンフ…     29     16     9     2     5    22    15      7
 5 J1     NA        5 浦和レ…     28     15     8     4     3    20    12      8
 6 J1     NA        6 セレッ…     26     16     8     2     6    21    18      3
 7 J1     NA        7 北海道…     25     16     7     4     5    37    31      6
 8 J1     NA        8 鹿島ア…     25     16     7     4     5    22    16      6
 9 J1     NA        9 サガン…     22     16     6     4     6    18    20     -2
10 J1     NA       10 川崎フ…     21     15     6     3     6    19    18      1
# ℹ 50 more rows
# ℹ 1 more variable: 直近5試合 <lgl>
…
