20. 可視化[発展] | 私たちのR: ベストプラクティスの探究
…
Heatmap_df

## # A tibble: 178 × 5
##    Country             Continent  Income                     FH_Total HDI_2018
##    <chr>               <fct>      <fct>                         <dbl>    <dbl>
##  1 Afghanistan         アジア     "1万ドル未満"                    27    0.496
##  2 Albania             ヨーロッパ "1万ドル以上\n2万ドル未満"       67    0.791
##  3 Algeria             アフリカ   "1万ドル以上\n2万ドル未満"       34    0.759
##  4 Angola              アフリカ   "1万ドル未満"                    32    0.574
##  5 Antigua and Barbuda アメリカ   "2万ドル以上\n3万ドル未満"       85    0.776
##  6 Argentina           アメリカ   "2万ドル以上\n3万ドル未満"       85    0.83 
##  7 Armenia             ヨーロッパ "1万ドル以上\n2万ドル未満"       53    0.76 
##  8 Australia           オセアニア "3万ドル以上"                    97    0.938
##  9 Austria             ヨーロッパ "3万ドル以上"                    93    0.914
## 10 Azerbaijan          ヨーロッパ "1万ドル以上\n2万ドル未満"       10    0.754
## # … with 168 more rows
…
Japan_Density <- read_csv("Data/Japan_Density.csv")

## Rows: 47 Columns: 3
## ── Column specification ────────────────────────────────────────────────────────
## Delimiter: ","
## chr (1): Name
## dbl (2): Code, Density
## 
## ℹ Use `spec()` to retrieve the full column specification for this data.
## ℹ Specify the column types or set `show_col_types = FALSE` to quiet this message.

Japan_Density

## # A tibble: 47 × 3
##     Code Name   Density
##    <dbl> <chr>    <dbl>
##  1     1 北海道    66.6
##  2     2 青森県   128. 
##  3     3 岩手県    79.2
##  4     4 宮城県   316. 
##  5     5 秋田県    82.4
##  6     6 山形県   115. 
##  7     7 福島県   133  
##  8     8 茨城県   470. 
##  9     9 栃木県   302. 
## 10    10 群馬県   305. 
## # … with 37 more rows
…
Osaka_Student <- read_csv("data/Osaka_Student.csv")

## Rows: 75 Columns: 4
## ── Column specification ────────────────────────────────────────────────────────
## Delimiter: ","
## chr (1): Name
## dbl (3): Code, Pop, Student
## 
## ℹ Use `spec()` to retrieve the full column specification for this data.
## ℹ Specify the column types or set `show_col_types = FALSE` to quiet this message.

Osaka_Student

## # A tibble: 75 × 4
##     Code Name                Pop Student
##    <dbl> <chr>             <dbl>   <dbl>
##  1 27000 大阪府          8839469  438901
##  2 27100 大阪市          2691185  104208
##  3 27102 大阪市 都島区    104727    3889
##  4 27103 大阪市 福島区     72484    2448
##  5 27104 大阪市 此花区     66656    2478
##  6 27106 大阪市 西区       92430    2633
##  7 27107 大阪市 港区       82035    3072
##  8 27108 大阪市 大正区     65141    2627
##  9 27109 大阪市 天王寺区   75729    3480
## 10 27111 大阪市 浪速区     69766    1409
## # … with 65 more rows
…
Vote10
2010年参院選における投票先

　たとえば、1番目の回答者は2009年に棄権し、2010年も棄権したことを意味する。また、5番目の回答者は2009年に自民党に投票し、2010年は共産党または社民党に投票したことを意味する。続いて、このデータを{ggalluvial}に適した形式のデータに加工します。具体的には「2009年棄権、かつ2010年棄権」、「2009年棄権、かつ2010年自民党投票」、…、「2009年民主党投票、かつ2010年自民党投票」のように全ての組み合わせに対し、該当するケース数を計算する必要があります。今回のデータだと、投票先はいずれも自民、民主、公明、共産・社民、その他、棄権、DK (わからない)の7であるため、49パターンができます。それぞれのパターンに該当するケース数を計算するためにはVote09とVote10でデータをグループ化し、ケース数を計算します。

Vote_0910 <- Vote_0910 %>%
  group_by(Vote09, Vote10) %>%
  summarise(Freq    = n(),
            .groups = "drop")

Vote_0910

## # A tibble: 47 × 3
##    Vote09 Vote10      Freq
##    <chr>  <chr>      <int>
##  1 DK     DK           111
##  2 DK     その他         8
##  3 DK     公明           7
##  4 DK     共産・社民    15
##  5 DK     棄権          57
##  6 DK     民主         116
##  7 DK     自民          29
##  8 その他 DK            18
##  9 その他 その他        73
## 10 その他 公明           4
## # … with 37 more rows
…
